%YAML 1.1
%TAG !u! tag:unity3d.com,2011:
--- !u!114 &11400000
MonoBehaviour:
  m_ObjectHideFlags: 0
  m_CorrespondingSourceObject: {fileID: 0}
  m_PrefabInstance: {fileID: 0}
  m_PrefabAsset: {fileID: 0}
  m_GameObject: {fileID: 0}
  m_Enabled: 1
  m_EditorHideFlags: 0
  m_Script: {fileID: 11500000, guid: 2540f93253b74e1eb5c5d6120adbe27d, type: 3}
  m_Name: Quality Creature Data _Template 2_Good
  m_EditorClassIdentifier: 
  _unitData: {fileID: 11400000, guid: dd370ccd1b0c01b4d904e355ba2d45eb, type: 2}
  _qualityType: {fileID: 11400000, guid: c601295504566dd41a5be60d9dbac4fe, type: 2}
  _icon: {fileID: 21300000, guid: ddd544026fe18e84e97b92d9105ae2c6, type: 3}
  _creatureControllerPrefab: {fileID: 4298377590779195631, guid: c75c7878fb04e944fbb280ad5060d5dd, type: 3}
  _preview: {fileID: 117150395161187363, guid: 13c8d084bda939e44ad19967dbedeeea, type: 3}
