%YAML 1.1
%TAG !u! tag:unity3d.com,2011:
--- !u!114 &11400000
MonoBehaviour:
  m_ObjectHideFlags: 0
  m_CorrespondingSourceObject: {fileID: 0}
  m_PrefabInstance: {fileID: 0}
  m_PrefabAsset: {fileID: 0}
  m_GameObject: {fileID: 0}
  m_Enabled: 1
  m_EditorHideFlags: 0
  m_Script: {fileID: 11500000, guid: dab8aade111344a7a75afdaaca1acef0, type: 3}
  m_Name: Core Log Data
  m_EditorClassIdentifier: 
  _defaultLogData: {fileID: 11400000, guid: 8e631b5bcb8adcd4a9ae8451406e03ca, type: 2}
  _systemLogData: {fileID: 11400000, guid: a1a85400926629543b3042de4510a821, type: 2}
  _managersLogData: {fileID: 11400000, guid: 4adf7f1f71f42134a8f70cab57b4019e, type: 2}
  _pageSystemLogData: {fileID: 11400000, guid: 80459336f6a9083459a8be32be50f500, type: 2}
  _popupSystemLogData: {fileID: 11400000, guid: 9775e96ef54697c469ab8d0443cdf93c, type: 2}
  _messageboxSystemLogData: {fileID: 11400000, guid: 85f1b14e12959a64abd443c01f777d11, type: 2}
  _tooltipSystemLogData: {fileID: 11400000, guid: c1e6493c9667f394aab846ed9ae429a2, type: 2}
