%YAML 1.1
%TAG !u! tag:unity3d.com,2011:
--- !u!1001 &4406860098329071864
PrefabInstance:
  m_ObjectHideFlags: 0
  serializedVersion: 2
  m_Modification:
    serializedVersion: 3
    m_TransformParent: {fileID: 6911429360209212651}
    m_Modifications:
    - target: {fileID: 117150395161187362, guid: 7444c8d70b86fd84c8b6956b3e130bfa, type: 3}
      propertyPath: m_LocalScale.x
      value: 0.17174998
      objectReference: {fileID: 0}
    - target: {fileID: 117150395161187362, guid: 7444c8d70b86fd84c8b6956b3e130bfa, type: 3}
      propertyPath: m_LocalScale.y
      value: 0.17174998
      objectReference: {fileID: 0}
    - target: {fileID: 117150395161187362, guid: 7444c8d70b86fd84c8b6956b3e130bfa, type: 3}
      propertyPath: m_LocalScale.z
      value: 1
      objectReference: {fileID: 0}
    - target: {fileID: 117150395161187362, guid: 7444c8d70b86fd84c8b6956b3e130bfa, type: 3}
      propertyPath: m_LocalPosition.x
      value: 0.041
      objectReference: {fileID: 0}
    - target: {fileID: 117150395161187362, guid: 7444c8d70b86fd84c8b6956b3e130bfa, type: 3}
      propertyPath: m_LocalPosition.y
      value: -0.374
      objectReference: {fileID: 0}
    - target: {fileID: 117150395161187362, guid: 7444c8d70b86fd84c8b6956b3e130bfa, type: 3}
      propertyPath: m_LocalPosition.z
      value: 0
      objectReference: {fileID: 0}
    - target: {fileID: 117150395161187362, guid: 7444c8d70b86fd84c8b6956b3e130bfa, type: 3}
      propertyPath: m_LocalRotation.w
      value: 1
      objectReference: {fileID: 0}
    - target: {fileID: 117150395161187362, guid: 7444c8d70b86fd84c8b6956b3e130bfa, type: 3}
      propertyPath: m_LocalRotation.x
      value: 0
      objectReference: {fileID: 0}
    - target: {fileID: 117150395161187362, guid: 7444c8d70b86fd84c8b6956b3e130bfa, type: 3}
      propertyPath: m_LocalRotation.y
      value: 0
      objectReference: {fileID: 0}
    - target: {fileID: 117150395161187362, guid: 7444c8d70b86fd84c8b6956b3e130bfa, type: 3}
      propertyPath: m_LocalRotation.z
      value: 0
      objectReference: {fileID: 0}
    - target: {fileID: 117150395161187362, guid: 7444c8d70b86fd84c8b6956b3e130bfa, type: 3}
      propertyPath: m_LocalEulerAnglesHint.x
      value: 0
      objectReference: {fileID: 0}
    - target: {fileID: 117150395161187362, guid: 7444c8d70b86fd84c8b6956b3e130bfa, type: 3}
      propertyPath: m_LocalEulerAnglesHint.y
      value: 0
      objectReference: {fileID: 0}
    - target: {fileID: 117150395161187362, guid: 7444c8d70b86fd84c8b6956b3e130bfa, type: 3}
      propertyPath: m_LocalEulerAnglesHint.z
      value: 0
      objectReference: {fileID: 0}
    - target: {fileID: 117150395161187363, guid: 7444c8d70b86fd84c8b6956b3e130bfa, type: 3}
      propertyPath: m_Name
      value: Burro
      objectReference: {fileID: 0}
    m_RemovedComponents: []
    m_RemovedGameObjects: []
    m_AddedGameObjects: []
    m_AddedComponents: []
  m_SourcePrefab: {fileID: 100100000, guid: 7444c8d70b86fd84c8b6956b3e130bfa, type: 3}
--- !u!4 &4361872856772920538 stripped
Transform:
  m_CorrespondingSourceObject: {fileID: 117150395161187362, guid: 7444c8d70b86fd84c8b6956b3e130bfa, type: 3}
  m_PrefabInstance: {fileID: 4406860098329071864}
  m_PrefabAsset: {fileID: 0}
--- !u!1001 &6107026133189084998
PrefabInstance:
  m_ObjectHideFlags: 0
  serializedVersion: 2
  m_Modification:
    serializedVersion: 3
    m_TransformParent: {fileID: 0}
    m_Modifications:
    - target: {fileID: 804692479327269805, guid: 9188597511996314cb419da33a325009, type: 3}
      propertyPath: m_LocalPosition.x
      value: 0
      objectReference: {fileID: 0}
    - target: {fileID: 804692479327269805, guid: 9188597511996314cb419da33a325009, type: 3}
      propertyPath: m_LocalPosition.y
      value: 0
      objectReference: {fileID: 0}
    - target: {fileID: 804692479327269805, guid: 9188597511996314cb419da33a325009, type: 3}
      propertyPath: m_LocalPosition.z
      value: 0
      objectReference: {fileID: 0}
    - target: {fileID: 804692479327269805, guid: 9188597511996314cb419da33a325009, type: 3}
      propertyPath: m_LocalRotation.w
      value: 1
      objectReference: {fileID: 0}
    - target: {fileID: 804692479327269805, guid: 9188597511996314cb419da33a325009, type: 3}
      propertyPath: m_LocalRotation.x
      value: 0
      objectReference: {fileID: 0}
    - target: {fileID: 804692479327269805, guid: 9188597511996314cb419da33a325009, type: 3}
      propertyPath: m_LocalRotation.y
      value: 0
      objectReference: {fileID: 0}
    - target: {fileID: 804692479327269805, guid: 9188597511996314cb419da33a325009, type: 3}
      propertyPath: m_LocalRotation.z
      value: 0
      objectReference: {fileID: 0}
    - target: {fileID: 804692479327269805, guid: 9188597511996314cb419da33a325009, type: 3}
      propertyPath: m_LocalEulerAnglesHint.x
      value: 0
      objectReference: {fileID: 0}
    - target: {fileID: 804692479327269805, guid: 9188597511996314cb419da33a325009, type: 3}
      propertyPath: m_LocalEulerAnglesHint.y
      value: 0
      objectReference: {fileID: 0}
    - target: {fileID: 804692479327269805, guid: 9188597511996314cb419da33a325009, type: 3}
      propertyPath: m_LocalEulerAnglesHint.z
      value: 0
      objectReference: {fileID: 0}
    - target: {fileID: 6189145453182058715, guid: 9188597511996314cb419da33a325009, type: 3}
      propertyPath: m_Name
      value: Creature Burro Variant
      objectReference: {fileID: 0}
    m_RemovedComponents: []
    m_RemovedGameObjects: []
    m_AddedGameObjects:
    - targetCorrespondingSourceObject: {fileID: 804692479327269805, guid: 9188597511996314cb419da33a325009, type: 3}
      insertIndex: -1
      addedObject: {fileID: 4361872856772920538}
    m_AddedComponents: []
  m_SourcePrefab: {fileID: 100100000, guid: 9188597511996314cb419da33a325009, type: 3}
--- !u!4 &6911429360209212651 stripped
Transform:
  m_CorrespondingSourceObject: {fileID: 804692479327269805, guid: 9188597511996314cb419da33a325009, type: 3}
  m_PrefabInstance: {fileID: 6107026133189084998}
  m_PrefabAsset: {fileID: 0}
