%YAML 1.1
%TAG !u! tag:unity3d.com,2011:
--- !u!1001 &7200531847729359419
PrefabInstance:
  m_ObjectHideFlags: 0
  serializedVersion: 2
  m_Modification:
    serializedVersion: 3
    m_TransformParent: {fileID: 7176082492165809162}
    m_Modifications:
    - target: {fileID: 117150395161187362, guid: 202a64aca3ce5744d9842f460b8f59ed, type: 3}
      propertyPath: m_LocalScale.x
      value: 0.20852461
      objectReference: {fileID: 0}
    - target: {fileID: 117150395161187362, guid: 202a64aca3ce5744d9842f460b8f59ed, type: 3}
      propertyPath: m_LocalScale.y
      value: 0.20852461
      objectReference: {fileID: 0}
    - target: {fileID: 117150395161187362, guid: 202a64aca3ce5744d9842f460b8f59ed, type: 3}
      propertyPath: m_LocalScale.z
      value: 1
      objectReference: {fileID: 0}
    - target: {fileID: 117150395161187362, guid: 202a64aca3ce5744d9842f460b8f59ed, type: 3}
      propertyPath: m_LocalPosition.x
      value: 0.019
      objectReference: {fileID: 0}
    - target: {fileID: 117150395161187362, guid: 202a64aca3ce5744d9842f460b8f59ed, type: 3}
      propertyPath: m_LocalPosition.y
      value: -0.367
      objectReference: {fileID: 0}
    - target: {fileID: 117150395161187362, guid: 202a64aca3ce5744d9842f460b8f59ed, type: 3}
      propertyPath: m_LocalPosition.z
      value: 0
      objectReference: {fileID: 0}
    - target: {fileID: 117150395161187362, guid: 202a64aca3ce5744d9842f460b8f59ed, type: 3}
      propertyPath: m_LocalRotation.w
      value: 1
      objectReference: {fileID: 0}
    - target: {fileID: 117150395161187362, guid: 202a64aca3ce5744d9842f460b8f59ed, type: 3}
      propertyPath: m_LocalRotation.x
      value: 0
      objectReference: {fileID: 0}
    - target: {fileID: 117150395161187362, guid: 202a64aca3ce5744d9842f460b8f59ed, type: 3}
      propertyPath: m_LocalRotation.y
      value: 0
      objectReference: {fileID: 0}
    - target: {fileID: 117150395161187362, guid: 202a64aca3ce5744d9842f460b8f59ed, type: 3}
      propertyPath: m_LocalRotation.z
      value: 0
      objectReference: {fileID: 0}
    - target: {fileID: 117150395161187362, guid: 202a64aca3ce5744d9842f460b8f59ed, type: 3}
      propertyPath: m_LocalEulerAnglesHint.x
      value: 0
      objectReference: {fileID: 0}
    - target: {fileID: 117150395161187362, guid: 202a64aca3ce5744d9842f460b8f59ed, type: 3}
      propertyPath: m_LocalEulerAnglesHint.y
      value: 0
      objectReference: {fileID: 0}
    - target: {fileID: 117150395161187362, guid: 202a64aca3ce5744d9842f460b8f59ed, type: 3}
      propertyPath: m_LocalEulerAnglesHint.z
      value: 0
      objectReference: {fileID: 0}
    - target: {fileID: 117150395161187363, guid: 202a64aca3ce5744d9842f460b8f59ed, type: 3}
      propertyPath: m_Name
      value: ShardLizard
      objectReference: {fileID: 0}
    m_RemovedComponents: []
    m_RemovedGameObjects: []
    m_AddedGameObjects: []
    m_AddedComponents: []
  m_SourcePrefab: {fileID: 100100000, guid: 202a64aca3ce5744d9842f460b8f59ed, type: 3}
--- !u!4 &7083421388520472089 stripped
Transform:
  m_CorrespondingSourceObject: {fileID: 117150395161187362, guid: 202a64aca3ce5744d9842f460b8f59ed, type: 3}
  m_PrefabInstance: {fileID: 7200531847729359419}
  m_PrefabAsset: {fileID: 0}
--- !u!1001 &7546984636095371175
PrefabInstance:
  m_ObjectHideFlags: 0
  serializedVersion: 2
  m_Modification:
    serializedVersion: 3
    m_TransformParent: {fileID: 0}
    m_Modifications:
    - target: {fileID: 804692479327269805, guid: 9188597511996314cb419da33a325009, type: 3}
      propertyPath: m_LocalPosition.x
      value: 0
      objectReference: {fileID: 0}
    - target: {fileID: 804692479327269805, guid: 9188597511996314cb419da33a325009, type: 3}
      propertyPath: m_LocalPosition.y
      value: 0
      objectReference: {fileID: 0}
    - target: {fileID: 804692479327269805, guid: 9188597511996314cb419da33a325009, type: 3}
      propertyPath: m_LocalPosition.z
      value: 0
      objectReference: {fileID: 0}
    - target: {fileID: 804692479327269805, guid: 9188597511996314cb419da33a325009, type: 3}
      propertyPath: m_LocalRotation.w
      value: 1
      objectReference: {fileID: 0}
    - target: {fileID: 804692479327269805, guid: 9188597511996314cb419da33a325009, type: 3}
      propertyPath: m_LocalRotation.x
      value: 0
      objectReference: {fileID: 0}
    - target: {fileID: 804692479327269805, guid: 9188597511996314cb419da33a325009, type: 3}
      propertyPath: m_LocalRotation.y
      value: 0
      objectReference: {fileID: 0}
    - target: {fileID: 804692479327269805, guid: 9188597511996314cb419da33a325009, type: 3}
      propertyPath: m_LocalRotation.z
      value: 0
      objectReference: {fileID: 0}
    - target: {fileID: 804692479327269805, guid: 9188597511996314cb419da33a325009, type: 3}
      propertyPath: m_LocalEulerAnglesHint.x
      value: 0
      objectReference: {fileID: 0}
    - target: {fileID: 804692479327269805, guid: 9188597511996314cb419da33a325009, type: 3}
      propertyPath: m_LocalEulerAnglesHint.y
      value: 0
      objectReference: {fileID: 0}
    - target: {fileID: 804692479327269805, guid: 9188597511996314cb419da33a325009, type: 3}
      propertyPath: m_LocalEulerAnglesHint.z
      value: 0
      objectReference: {fileID: 0}
    - target: {fileID: 6189145453182058715, guid: 9188597511996314cb419da33a325009, type: 3}
      propertyPath: m_Name
      value: Creature Shard Lizard Variant
      objectReference: {fileID: 0}
    m_RemovedComponents: []
    m_RemovedGameObjects: []
    m_AddedGameObjects:
    - targetCorrespondingSourceObject: {fileID: 804692479327269805, guid: 9188597511996314cb419da33a325009, type: 3}
      insertIndex: -1
      addedObject: {fileID: 7083421388520472089}
    m_AddedComponents: []
  m_SourcePrefab: {fileID: 100100000, guid: 9188597511996314cb419da33a325009, type: 3}
--- !u!4 &7176082492165809162 stripped
Transform:
  m_CorrespondingSourceObject: {fileID: 804692479327269805, guid: 9188597511996314cb419da33a325009, type: 3}
  m_PrefabInstance: {fileID: 7546984636095371175}
  m_PrefabAsset: {fileID: 0}
