%YAML 1.1
%TAG !u! tag:unity3d.com,2011:
--- !u!1001 &90928457515659405
PrefabInstance:
  m_ObjectHideFlags: 0
  serializedVersion: 2
  m_Modification:
    serializedVersion: 3
    m_TransformParent: {fileID: 0}
    m_Modifications:
    - target: {fileID: 804692479327269805, guid: 9188597511996314cb419da33a325009, type: 3}
      propertyPath: m_LocalPosition.x
      value: 0
      objectReference: {fileID: 0}
    - target: {fileID: 804692479327269805, guid: 9188597511996314cb419da33a325009, type: 3}
      propertyPath: m_LocalPosition.y
      value: 0
      objectReference: {fileID: 0}
    - target: {fileID: 804692479327269805, guid: 9188597511996314cb419da33a325009, type: 3}
      propertyPath: m_LocalPosition.z
      value: 0
      objectReference: {fileID: 0}
    - target: {fileID: 804692479327269805, guid: 9188597511996314cb419da33a325009, type: 3}
      propertyPath: m_LocalRotation.w
      value: 1
      objectReference: {fileID: 0}
    - target: {fileID: 804692479327269805, guid: 9188597511996314cb419da33a325009, type: 3}
      propertyPath: m_LocalRotation.x
      value: 0
      objectReference: {fileID: 0}
    - target: {fileID: 804692479327269805, guid: 9188597511996314cb419da33a325009, type: 3}
      propertyPath: m_LocalRotation.y
      value: 0
      objectReference: {fileID: 0}
    - target: {fileID: 804692479327269805, guid: 9188597511996314cb419da33a325009, type: 3}
      propertyPath: m_LocalRotation.z
      value: 0
      objectReference: {fileID: 0}
    - target: {fileID: 804692479327269805, guid: 9188597511996314cb419da33a325009, type: 3}
      propertyPath: m_LocalEulerAnglesHint.x
      value: 0
      objectReference: {fileID: 0}
    - target: {fileID: 804692479327269805, guid: 9188597511996314cb419da33a325009, type: 3}
      propertyPath: m_LocalEulerAnglesHint.y
      value: 0
      objectReference: {fileID: 0}
    - target: {fileID: 804692479327269805, guid: 9188597511996314cb419da33a325009, type: 3}
      propertyPath: m_LocalEulerAnglesHint.z
      value: 0
      objectReference: {fileID: 0}
    - target: {fileID: 6189145453182058715, guid: 9188597511996314cb419da33a325009, type: 3}
      propertyPath: m_Name
      value: Creature Possessed Black Boar Variant
      objectReference: {fileID: 0}
    m_RemovedComponents: []
    m_RemovedGameObjects: []
    m_AddedGameObjects:
    - targetCorrespondingSourceObject: {fileID: 804692479327269805, guid: 9188597511996314cb419da33a325009, type: 3}
      insertIndex: -1
      addedObject: {fileID: 3789451118729055449}
    m_AddedComponents: []
  m_SourcePrefab: {fileID: 100100000, guid: 9188597511996314cb419da33a325009, type: 3}
--- !u!4 &750374323311280928 stripped
Transform:
  m_CorrespondingSourceObject: {fileID: 804692479327269805, guid: 9188597511996314cb419da33a325009, type: 3}
  m_PrefabInstance: {fileID: 90928457515659405}
  m_PrefabAsset: {fileID: 0}
--- !u!1001 &759951079660413215
PrefabInstance:
  m_ObjectHideFlags: 0
  serializedVersion: 2
  m_Modification:
    serializedVersion: 3
    m_TransformParent: {fileID: 750374323311280928}
    m_Modifications:
    - target: {fileID: 948499981450828567, guid: 4bc0ecd8bd4aeaf49b9e699d7963996d, type: 3}
      propertyPath: m_Name
      value: PossessedBlackBoar
      objectReference: {fileID: 0}
    - target: {fileID: 4475793854818692550, guid: 4bc0ecd8bd4aeaf49b9e699d7963996d, type: 3}
      propertyPath: m_LocalScale.x
      value: 0.17874911
      objectReference: {fileID: 0}
    - target: {fileID: 4475793854818692550, guid: 4bc0ecd8bd4aeaf49b9e699d7963996d, type: 3}
      propertyPath: m_LocalScale.y
      value: 0.17874911
      objectReference: {fileID: 0}
    - target: {fileID: 4475793854818692550, guid: 4bc0ecd8bd4aeaf49b9e699d7963996d, type: 3}
      propertyPath: m_LocalScale.z
      value: 1
      objectReference: {fileID: 0}
    - target: {fileID: 4475793854818692550, guid: 4bc0ecd8bd4aeaf49b9e699d7963996d, type: 3}
      propertyPath: m_LocalPosition.x
      value: 0.009
      objectReference: {fileID: 0}
    - target: {fileID: 4475793854818692550, guid: 4bc0ecd8bd4aeaf49b9e699d7963996d, type: 3}
      propertyPath: m_LocalPosition.y
      value: -0.372
      objectReference: {fileID: 0}
    - target: {fileID: 4475793854818692550, guid: 4bc0ecd8bd4aeaf49b9e699d7963996d, type: 3}
      propertyPath: m_LocalPosition.z
      value: 0
      objectReference: {fileID: 0}
    - target: {fileID: 4475793854818692550, guid: 4bc0ecd8bd4aeaf49b9e699d7963996d, type: 3}
      propertyPath: m_LocalRotation.w
      value: 1
      objectReference: {fileID: 0}
    - target: {fileID: 4475793854818692550, guid: 4bc0ecd8bd4aeaf49b9e699d7963996d, type: 3}
      propertyPath: m_LocalRotation.x
      value: 0
      objectReference: {fileID: 0}
    - target: {fileID: 4475793854818692550, guid: 4bc0ecd8bd4aeaf49b9e699d7963996d, type: 3}
      propertyPath: m_LocalRotation.y
      value: 0
      objectReference: {fileID: 0}
    - target: {fileID: 4475793854818692550, guid: 4bc0ecd8bd4aeaf49b9e699d7963996d, type: 3}
      propertyPath: m_LocalRotation.z
      value: 0
      objectReference: {fileID: 0}
    - target: {fileID: 4475793854818692550, guid: 4bc0ecd8bd4aeaf49b9e699d7963996d, type: 3}
      propertyPath: m_LocalEulerAnglesHint.x
      value: 0
      objectReference: {fileID: 0}
    - target: {fileID: 4475793854818692550, guid: 4bc0ecd8bd4aeaf49b9e699d7963996d, type: 3}
      propertyPath: m_LocalEulerAnglesHint.y
      value: 0
      objectReference: {fileID: 0}
    - target: {fileID: 4475793854818692550, guid: 4bc0ecd8bd4aeaf49b9e699d7963996d, type: 3}
      propertyPath: m_LocalEulerAnglesHint.z
      value: 0
      objectReference: {fileID: 0}
    m_RemovedComponents: []
    m_RemovedGameObjects: []
    m_AddedGameObjects: []
    m_AddedComponents: []
  m_SourcePrefab: {fileID: 100100000, guid: 4bc0ecd8bd4aeaf49b9e699d7963996d, type: 3}
--- !u!4 &3789451118729055449 stripped
Transform:
  m_CorrespondingSourceObject: {fileID: 4475793854818692550, guid: 4bc0ecd8bd4aeaf49b9e699d7963996d, type: 3}
  m_PrefabInstance: {fileID: 759951079660413215}
  m_PrefabAsset: {fileID: 0}
