%YAML 1.1
%TAG !u! tag:unity3d.com,2011:
--- !u!1001 &2070522517371619689
PrefabInstance:
  m_ObjectHideFlags: 0
  serializedVersion: 2
  m_Modification:
    serializedVersion: 3
    m_TransformParent: {fileID: 0}
    m_Modifications:
    - target: {fileID: 804692479327269805, guid: 9188597511996314cb419da33a325009, type: 3}
      propertyPath: m_LocalPosition.x
      value: 0
      objectReference: {fileID: 0}
    - target: {fileID: 804692479327269805, guid: 9188597511996314cb419da33a325009, type: 3}
      propertyPath: m_LocalPosition.y
      value: 0
      objectReference: {fileID: 0}
    - target: {fileID: 804692479327269805, guid: 9188597511996314cb419da33a325009, type: 3}
      propertyPath: m_LocalPosition.z
      value: 0
      objectReference: {fileID: 0}
    - target: {fileID: 804692479327269805, guid: 9188597511996314cb419da33a325009, type: 3}
      propertyPath: m_LocalRotation.w
      value: 1
      objectReference: {fileID: 0}
    - target: {fileID: 804692479327269805, guid: 9188597511996314cb419da33a325009, type: 3}
      propertyPath: m_LocalRotation.x
      value: 0
      objectReference: {fileID: 0}
    - target: {fileID: 804692479327269805, guid: 9188597511996314cb419da33a325009, type: 3}
      propertyPath: m_LocalRotation.y
      value: 0
      objectReference: {fileID: 0}
    - target: {fileID: 804692479327269805, guid: 9188597511996314cb419da33a325009, type: 3}
      propertyPath: m_LocalRotation.z
      value: 0
      objectReference: {fileID: 0}
    - target: {fileID: 804692479327269805, guid: 9188597511996314cb419da33a325009, type: 3}
      propertyPath: m_LocalEulerAnglesHint.x
      value: 0
      objectReference: {fileID: 0}
    - target: {fileID: 804692479327269805, guid: 9188597511996314cb419da33a325009, type: 3}
      propertyPath: m_LocalEulerAnglesHint.y
      value: 0
      objectReference: {fileID: 0}
    - target: {fileID: 804692479327269805, guid: 9188597511996314cb419da33a325009, type: 3}
      propertyPath: m_LocalEulerAnglesHint.z
      value: 0
      objectReference: {fileID: 0}
    - target: {fileID: 6189145453182058715, guid: 9188597511996314cb419da33a325009, type: 3}
      propertyPath: m_Name
      value: Creature Turkey Variant
      objectReference: {fileID: 0}
    m_RemovedComponents: []
    m_RemovedGameObjects: []
    m_AddedGameObjects:
    - targetCorrespondingSourceObject: {fileID: 804692479327269805, guid: 9188597511996314cb419da33a325009, type: 3}
      insertIndex: -1
      addedObject: {fileID: 7061298884567408222}
    m_AddedComponents: []
  m_SourcePrefab: {fileID: 100100000, guid: 9188597511996314cb419da33a325009, type: 3}
--- !u!4 &1698189977681722052 stripped
Transform:
  m_CorrespondingSourceObject: {fileID: 804692479327269805, guid: 9188597511996314cb419da33a325009, type: 3}
  m_PrefabInstance: {fileID: 2070522517371619689}
  m_PrefabAsset: {fileID: 0}
--- !u!1001 &4686947620397598065
PrefabInstance:
  m_ObjectHideFlags: 0
  serializedVersion: 2
  m_Modification:
    serializedVersion: 3
    m_TransformParent: {fileID: 1698189977681722052}
    m_Modifications:
    - target: {fileID: 1423470163212545534, guid: 2473815fed4abc44582e86f2af87f4e7, type: 3}
      propertyPath: m_Name
      value: Turkey
      objectReference: {fileID: 0}
    - target: {fileID: 2374989008031308591, guid: 2473815fed4abc44582e86f2af87f4e7, type: 3}
      propertyPath: m_LocalScale.x
      value: 0.19137786
      objectReference: {fileID: 0}
    - target: {fileID: 2374989008031308591, guid: 2473815fed4abc44582e86f2af87f4e7, type: 3}
      propertyPath: m_LocalScale.y
      value: 0.19137786
      objectReference: {fileID: 0}
    - target: {fileID: 2374989008031308591, guid: 2473815fed4abc44582e86f2af87f4e7, type: 3}
      propertyPath: m_LocalScale.z
      value: 1
      objectReference: {fileID: 0}
    - target: {fileID: 2374989008031308591, guid: 2473815fed4abc44582e86f2af87f4e7, type: 3}
      propertyPath: m_LocalPosition.x
      value: -0.069
      objectReference: {fileID: 0}
    - target: {fileID: 2374989008031308591, guid: 2473815fed4abc44582e86f2af87f4e7, type: 3}
      propertyPath: m_LocalPosition.y
      value: -0.382
      objectReference: {fileID: 0}
    - target: {fileID: 2374989008031308591, guid: 2473815fed4abc44582e86f2af87f4e7, type: 3}
      propertyPath: m_LocalPosition.z
      value: 0
      objectReference: {fileID: 0}
    - target: {fileID: 2374989008031308591, guid: 2473815fed4abc44582e86f2af87f4e7, type: 3}
      propertyPath: m_LocalRotation.w
      value: 1
      objectReference: {fileID: 0}
    - target: {fileID: 2374989008031308591, guid: 2473815fed4abc44582e86f2af87f4e7, type: 3}
      propertyPath: m_LocalRotation.x
      value: 0
      objectReference: {fileID: 0}
    - target: {fileID: 2374989008031308591, guid: 2473815fed4abc44582e86f2af87f4e7, type: 3}
      propertyPath: m_LocalRotation.y
      value: 0
      objectReference: {fileID: 0}
    - target: {fileID: 2374989008031308591, guid: 2473815fed4abc44582e86f2af87f4e7, type: 3}
      propertyPath: m_LocalRotation.z
      value: 0
      objectReference: {fileID: 0}
    - target: {fileID: 2374989008031308591, guid: 2473815fed4abc44582e86f2af87f4e7, type: 3}
      propertyPath: m_LocalEulerAnglesHint.x
      value: 0
      objectReference: {fileID: 0}
    - target: {fileID: 2374989008031308591, guid: 2473815fed4abc44582e86f2af87f4e7, type: 3}
      propertyPath: m_LocalEulerAnglesHint.y
      value: 0
      objectReference: {fileID: 0}
    - target: {fileID: 2374989008031308591, guid: 2473815fed4abc44582e86f2af87f4e7, type: 3}
      propertyPath: m_LocalEulerAnglesHint.z
      value: 0
      objectReference: {fileID: 0}
    m_RemovedComponents: []
    m_RemovedGameObjects: []
    m_AddedGameObjects: []
    m_AddedComponents: []
  m_SourcePrefab: {fileID: 100100000, guid: 2473815fed4abc44582e86f2af87f4e7, type: 3}
--- !u!4 &7061298884567408222 stripped
Transform:
  m_CorrespondingSourceObject: {fileID: 2374989008031308591, guid: 2473815fed4abc44582e86f2af87f4e7, type: 3}
  m_PrefabInstance: {fileID: 4686947620397598065}
  m_PrefabAsset: {fileID: 0}
