%YAML 1.1
%TAG !u! tag:unity3d.com,2011:
--- !u!1001 &3998393246534746308
PrefabInstance:
  m_ObjectHideFlags: 0
  serializedVersion: 2
  m_Modification:
    serializedVersion: 3
    m_TransformParent: {fileID: 0}
    m_Modifications:
    - target: {fileID: 804692479327269805, guid: 9188597511996314cb419da33a325009, type: 3}
      propertyPath: m_LocalPosition.x
      value: 0
      objectReference: {fileID: 0}
    - target: {fileID: 804692479327269805, guid: 9188597511996314cb419da33a325009, type: 3}
      propertyPath: m_LocalPosition.y
      value: 0
      objectReference: {fileID: 0}
    - target: {fileID: 804692479327269805, guid: 9188597511996314cb419da33a325009, type: 3}
      propertyPath: m_LocalPosition.z
      value: 0
      objectReference: {fileID: 0}
    - target: {fileID: 804692479327269805, guid: 9188597511996314cb419da33a325009, type: 3}
      propertyPath: m_LocalRotation.w
      value: 1
      objectReference: {fileID: 0}
    - target: {fileID: 804692479327269805, guid: 9188597511996314cb419da33a325009, type: 3}
      propertyPath: m_LocalRotation.x
      value: 0
      objectReference: {fileID: 0}
    - target: {fileID: 804692479327269805, guid: 9188597511996314cb419da33a325009, type: 3}
      propertyPath: m_LocalRotation.y
      value: 0
      objectReference: {fileID: 0}
    - target: {fileID: 804692479327269805, guid: 9188597511996314cb419da33a325009, type: 3}
      propertyPath: m_LocalRotation.z
      value: 0
      objectReference: {fileID: 0}
    - target: {fileID: 804692479327269805, guid: 9188597511996314cb419da33a325009, type: 3}
      propertyPath: m_LocalEulerAnglesHint.x
      value: 0
      objectReference: {fileID: 0}
    - target: {fileID: 804692479327269805, guid: 9188597511996314cb419da33a325009, type: 3}
      propertyPath: m_LocalEulerAnglesHint.y
      value: 0
      objectReference: {fileID: 0}
    - target: {fileID: 804692479327269805, guid: 9188597511996314cb419da33a325009, type: 3}
      propertyPath: m_LocalEulerAnglesHint.z
      value: 0
      objectReference: {fileID: 0}
    - target: {fileID: 6189145453182058715, guid: 9188597511996314cb419da33a325009, type: 3}
      propertyPath: m_Name
      value: Creature Possessed Rat Variant
      objectReference: {fileID: 0}
    m_RemovedComponents: []
    m_RemovedGameObjects: []
    m_AddedGameObjects:
    - targetCorrespondingSourceObject: {fileID: 804692479327269805, guid: 9188597511996314cb419da33a325009, type: 3}
      insertIndex: -1
      addedObject: {fileID: 4234666659678274846}
    m_AddedComponents: []
  m_SourcePrefab: {fileID: 100100000, guid: 9188597511996314cb419da33a325009, type: 3}
--- !u!4 &4348211089863652201 stripped
Transform:
  m_CorrespondingSourceObject: {fileID: 804692479327269805, guid: 9188597511996314cb419da33a325009, type: 3}
  m_PrefabInstance: {fileID: 3998393246534746308}
  m_PrefabAsset: {fileID: 0}
--- !u!1001 &7774275082379549983
PrefabInstance:
  m_ObjectHideFlags: 0
  serializedVersion: 2
  m_Modification:
    serializedVersion: 3
    m_TransformParent: {fileID: 4348211089863652201}
    m_Modifications:
    - target: {fileID: 5847725221963307008, guid: 200031dc208b67041a18eda3f9b0241a, type: 3}
      propertyPath: m_Name
      value: PossessedRat
      objectReference: {fileID: 0}
    - target: {fileID: 5847725221963307009, guid: 200031dc208b67041a18eda3f9b0241a, type: 3}
      propertyPath: m_LocalScale.x
      value: 0.20779176
      objectReference: {fileID: 0}
    - target: {fileID: 5847725221963307009, guid: 200031dc208b67041a18eda3f9b0241a, type: 3}
      propertyPath: m_LocalScale.y
      value: 0.20779176
      objectReference: {fileID: 0}
    - target: {fileID: 5847725221963307009, guid: 200031dc208b67041a18eda3f9b0241a, type: 3}
      propertyPath: m_LocalScale.z
      value: 1
      objectReference: {fileID: 0}
    - target: {fileID: 5847725221963307009, guid: 200031dc208b67041a18eda3f9b0241a, type: 3}
      propertyPath: m_LocalPosition.x
      value: 0.006
      objectReference: {fileID: 0}
    - target: {fileID: 5847725221963307009, guid: 200031dc208b67041a18eda3f9b0241a, type: 3}
      propertyPath: m_LocalPosition.y
      value: -0.383
      objectReference: {fileID: 0}
    - target: {fileID: 5847725221963307009, guid: 200031dc208b67041a18eda3f9b0241a, type: 3}
      propertyPath: m_LocalPosition.z
      value: 0
      objectReference: {fileID: 0}
    - target: {fileID: 5847725221963307009, guid: 200031dc208b67041a18eda3f9b0241a, type: 3}
      propertyPath: m_LocalRotation.w
      value: 1
      objectReference: {fileID: 0}
    - target: {fileID: 5847725221963307009, guid: 200031dc208b67041a18eda3f9b0241a, type: 3}
      propertyPath: m_LocalRotation.x
      value: 0
      objectReference: {fileID: 0}
    - target: {fileID: 5847725221963307009, guid: 200031dc208b67041a18eda3f9b0241a, type: 3}
      propertyPath: m_LocalRotation.y
      value: 0
      objectReference: {fileID: 0}
    - target: {fileID: 5847725221963307009, guid: 200031dc208b67041a18eda3f9b0241a, type: 3}
      propertyPath: m_LocalRotation.z
      value: 0
      objectReference: {fileID: 0}
    - target: {fileID: 5847725221963307009, guid: 200031dc208b67041a18eda3f9b0241a, type: 3}
      propertyPath: m_LocalEulerAnglesHint.x
      value: 0
      objectReference: {fileID: 0}
    - target: {fileID: 5847725221963307009, guid: 200031dc208b67041a18eda3f9b0241a, type: 3}
      propertyPath: m_LocalEulerAnglesHint.y
      value: 0
      objectReference: {fileID: 0}
    - target: {fileID: 5847725221963307009, guid: 200031dc208b67041a18eda3f9b0241a, type: 3}
      propertyPath: m_LocalEulerAnglesHint.z
      value: 0
      objectReference: {fileID: 0}
    m_RemovedComponents: []
    m_RemovedGameObjects: []
    m_AddedGameObjects: []
    m_AddedComponents: []
  m_SourcePrefab: {fileID: 100100000, guid: 200031dc208b67041a18eda3f9b0241a, type: 3}
--- !u!4 &4234666659678274846 stripped
Transform:
  m_CorrespondingSourceObject: {fileID: 5847725221963307009, guid: 200031dc208b67041a18eda3f9b0241a, type: 3}
  m_PrefabInstance: {fileID: 7774275082379549983}
  m_PrefabAsset: {fileID: 0}
