%YAML 1.1
%TAG !u! tag:unity3d.com,2011:
--- !u!1001 &1955814840619450698
PrefabInstance:
  m_ObjectHideFlags: 0
  serializedVersion: 2
  m_Modification:
    serializedVersion: 3
    m_TransformParent: {fileID: 9142907868021864689}
    m_Modifications:
    - target: {fileID: 117150395161187362, guid: 4e0cb19341c5f0443a9f7948ea19e094, type: 3}
      propertyPath: m_LocalScale.x
      value: 0.15671746
      objectReference: {fileID: 0}
    - target: {fileID: 117150395161187362, guid: 4e0cb19341c5f0443a9f7948ea19e094, type: 3}
      propertyPath: m_LocalScale.y
      value: 0.15671746
      objectReference: {fileID: 0}
    - target: {fileID: 117150395161187362, guid: 4e0cb19341c5f0443a9f7948ea19e094, type: 3}
      propertyPath: m_LocalScale.z
      value: 1
      objectReference: {fileID: 0}
    - target: {fileID: 117150395161187362, guid: 4e0cb19341c5f0443a9f7948ea19e094, type: 3}
      propertyPath: m_LocalPosition.x
      value: -0.016
      objectReference: {fileID: 0}
    - target: {fileID: 117150395161187362, guid: 4e0cb19341c5f0443a9f7948ea19e094, type: 3}
      propertyPath: m_LocalPosition.y
      value: -0.371
      objectReference: {fileID: 0}
    - target: {fileID: 117150395161187362, guid: 4e0cb19341c5f0443a9f7948ea19e094, type: 3}
      propertyPath: m_LocalPosition.z
      value: 0
      objectReference: {fileID: 0}
    - target: {fileID: 117150395161187362, guid: 4e0cb19341c5f0443a9f7948ea19e094, type: 3}
      propertyPath: m_LocalRotation.w
      value: 1
      objectReference: {fileID: 0}
    - target: {fileID: 117150395161187362, guid: 4e0cb19341c5f0443a9f7948ea19e094, type: 3}
      propertyPath: m_LocalRotation.x
      value: 0
      objectReference: {fileID: 0}
    - target: {fileID: 117150395161187362, guid: 4e0cb19341c5f0443a9f7948ea19e094, type: 3}
      propertyPath: m_LocalRotation.y
      value: 0
      objectReference: {fileID: 0}
    - target: {fileID: 117150395161187362, guid: 4e0cb19341c5f0443a9f7948ea19e094, type: 3}
      propertyPath: m_LocalRotation.z
      value: 0
      objectReference: {fileID: 0}
    - target: {fileID: 117150395161187362, guid: 4e0cb19341c5f0443a9f7948ea19e094, type: 3}
      propertyPath: m_LocalEulerAnglesHint.x
      value: 0
      objectReference: {fileID: 0}
    - target: {fileID: 117150395161187362, guid: 4e0cb19341c5f0443a9f7948ea19e094, type: 3}
      propertyPath: m_LocalEulerAnglesHint.y
      value: 0
      objectReference: {fileID: 0}
    - target: {fileID: 117150395161187362, guid: 4e0cb19341c5f0443a9f7948ea19e094, type: 3}
      propertyPath: m_LocalEulerAnglesHint.z
      value: 0
      objectReference: {fileID: 0}
    - target: {fileID: 117150395161187363, guid: 4e0cb19341c5f0443a9f7948ea19e094, type: 3}
      propertyPath: m_Name
      value: Golem
      objectReference: {fileID: 0}
    m_RemovedComponents: []
    m_RemovedGameObjects: []
    m_AddedGameObjects: []
    m_AddedComponents: []
  m_SourcePrefab: {fileID: 100100000, guid: 4e0cb19341c5f0443a9f7948ea19e094, type: 3}
--- !u!4 &1910723154321233256 stripped
Transform:
  m_CorrespondingSourceObject: {fileID: 117150395161187362, guid: 4e0cb19341c5f0443a9f7948ea19e094, type: 3}
  m_PrefabInstance: {fileID: 1955814840619450698}
  m_PrefabAsset: {fileID: 0}
--- !u!1001 &8487303737661705052
PrefabInstance:
  m_ObjectHideFlags: 0
  serializedVersion: 2
  m_Modification:
    serializedVersion: 3
    m_TransformParent: {fileID: 0}
    m_Modifications:
    - target: {fileID: 804692479327269805, guid: 9188597511996314cb419da33a325009, type: 3}
      propertyPath: m_LocalPosition.x
      value: 0
      objectReference: {fileID: 0}
    - target: {fileID: 804692479327269805, guid: 9188597511996314cb419da33a325009, type: 3}
      propertyPath: m_LocalPosition.y
      value: 0
      objectReference: {fileID: 0}
    - target: {fileID: 804692479327269805, guid: 9188597511996314cb419da33a325009, type: 3}
      propertyPath: m_LocalPosition.z
      value: 0
      objectReference: {fileID: 0}
    - target: {fileID: 804692479327269805, guid: 9188597511996314cb419da33a325009, type: 3}
      propertyPath: m_LocalRotation.w
      value: 1
      objectReference: {fileID: 0}
    - target: {fileID: 804692479327269805, guid: 9188597511996314cb419da33a325009, type: 3}
      propertyPath: m_LocalRotation.x
      value: 0
      objectReference: {fileID: 0}
    - target: {fileID: 804692479327269805, guid: 9188597511996314cb419da33a325009, type: 3}
      propertyPath: m_LocalRotation.y
      value: 0
      objectReference: {fileID: 0}
    - target: {fileID: 804692479327269805, guid: 9188597511996314cb419da33a325009, type: 3}
      propertyPath: m_LocalRotation.z
      value: 0
      objectReference: {fileID: 0}
    - target: {fileID: 804692479327269805, guid: 9188597511996314cb419da33a325009, type: 3}
      propertyPath: m_LocalEulerAnglesHint.x
      value: 0
      objectReference: {fileID: 0}
    - target: {fileID: 804692479327269805, guid: 9188597511996314cb419da33a325009, type: 3}
      propertyPath: m_LocalEulerAnglesHint.y
      value: 0
      objectReference: {fileID: 0}
    - target: {fileID: 804692479327269805, guid: 9188597511996314cb419da33a325009, type: 3}
      propertyPath: m_LocalEulerAnglesHint.z
      value: 0
      objectReference: {fileID: 0}
    - target: {fileID: 6189145453182058715, guid: 9188597511996314cb419da33a325009, type: 3}
      propertyPath: m_Name
      value: Creature Golem Variant
      objectReference: {fileID: 0}
    m_RemovedComponents: []
    m_RemovedGameObjects: []
    m_AddedGameObjects:
    - targetCorrespondingSourceObject: {fileID: 804692479327269805, guid: 9188597511996314cb419da33a325009, type: 3}
      insertIndex: -1
      addedObject: {fileID: 1910723154321233256}
    m_AddedComponents: []
  m_SourcePrefab: {fileID: 100100000, guid: 9188597511996314cb419da33a325009, type: 3}
--- !u!4 &9142907868021864689 stripped
Transform:
  m_CorrespondingSourceObject: {fileID: 804692479327269805, guid: 9188597511996314cb419da33a325009, type: 3}
  m_PrefabInstance: {fileID: 8487303737661705052}
  m_PrefabAsset: {fileID: 0}
