%YAML 1.1
%TAG !u! tag:unity3d.com,2011:
--- !u!1001 &1874544718088103185
PrefabInstance:
  m_ObjectHideFlags: 0
  serializedVersion: 2
  m_Modification:
    serializedVersion: 3
    m_TransformParent: {fileID: 0}
    m_Modifications:
    - target: {fileID: 804692479327269805, guid: 9188597511996314cb419da33a325009, type: 3}
      propertyPath: m_LocalPosition.x
      value: 0
      objectReference: {fileID: 0}
    - target: {fileID: 804692479327269805, guid: 9188597511996314cb419da33a325009, type: 3}
      propertyPath: m_LocalPosition.y
      value: 0
      objectReference: {fileID: 0}
    - target: {fileID: 804692479327269805, guid: 9188597511996314cb419da33a325009, type: 3}
      propertyPath: m_LocalPosition.z
      value: 0
      objectReference: {fileID: 0}
    - target: {fileID: 804692479327269805, guid: 9188597511996314cb419da33a325009, type: 3}
      propertyPath: m_LocalRotation.w
      value: 1
      objectReference: {fileID: 0}
    - target: {fileID: 804692479327269805, guid: 9188597511996314cb419da33a325009, type: 3}
      propertyPath: m_LocalRotation.x
      value: 0
      objectReference: {fileID: 0}
    - target: {fileID: 804692479327269805, guid: 9188597511996314cb419da33a325009, type: 3}
      propertyPath: m_LocalRotation.y
      value: 0
      objectReference: {fileID: 0}
    - target: {fileID: 804692479327269805, guid: 9188597511996314cb419da33a325009, type: 3}
      propertyPath: m_LocalRotation.z
      value: 0
      objectReference: {fileID: 0}
    - target: {fileID: 804692479327269805, guid: 9188597511996314cb419da33a325009, type: 3}
      propertyPath: m_LocalEulerAnglesHint.x
      value: 0
      objectReference: {fileID: 0}
    - target: {fileID: 804692479327269805, guid: 9188597511996314cb419da33a325009, type: 3}
      propertyPath: m_LocalEulerAnglesHint.y
      value: 0
      objectReference: {fileID: 0}
    - target: {fileID: 804692479327269805, guid: 9188597511996314cb419da33a325009, type: 3}
      propertyPath: m_LocalEulerAnglesHint.z
      value: 0
      objectReference: {fileID: 0}
    - target: {fileID: 6189145453182058715, guid: 9188597511996314cb419da33a325009, type: 3}
      propertyPath: m_Name
      value: Creature Wild Goat Variant
      objectReference: {fileID: 0}
    m_RemovedComponents: []
    m_RemovedGameObjects: []
    m_AddedGameObjects:
    - targetCorrespondingSourceObject: {fileID: 804692479327269805, guid: 9188597511996314cb419da33a325009, type: 3}
      insertIndex: -1
      addedObject: {fileID: 6952176925830105293}
    m_AddedComponents: []
  m_SourcePrefab: {fileID: 100100000, guid: 9188597511996314cb419da33a325009, type: 3}
--- !u!4 &1236642677769049788 stripped
Transform:
  m_CorrespondingSourceObject: {fileID: 804692479327269805, guid: 9188597511996314cb419da33a325009, type: 3}
  m_PrefabInstance: {fileID: 1874544718088103185}
  m_PrefabAsset: {fileID: 0}
--- !u!1001 &7051277734594764015
PrefabInstance:
  m_ObjectHideFlags: 0
  serializedVersion: 2
  m_Modification:
    serializedVersion: 3
    m_TransformParent: {fileID: 1236642677769049788}
    m_Modifications:
    - target: {fileID: 117150395161187362, guid: d51a7d3396b416b47bf1306a817d495b, type: 3}
      propertyPath: m_LocalScale.x
      value: 0.17862923
      objectReference: {fileID: 0}
    - target: {fileID: 117150395161187362, guid: d51a7d3396b416b47bf1306a817d495b, type: 3}
      propertyPath: m_LocalScale.y
      value: 0.17862923
      objectReference: {fileID: 0}
    - target: {fileID: 117150395161187362, guid: d51a7d3396b416b47bf1306a817d495b, type: 3}
      propertyPath: m_LocalScale.z
      value: 1
      objectReference: {fileID: 0}
    - target: {fileID: 117150395161187362, guid: d51a7d3396b416b47bf1306a817d495b, type: 3}
      propertyPath: m_LocalPosition.x
      value: 0.007
      objectReference: {fileID: 0}
    - target: {fileID: 117150395161187362, guid: d51a7d3396b416b47bf1306a817d495b, type: 3}
      propertyPath: m_LocalPosition.y
      value: -0.36
      objectReference: {fileID: 0}
    - target: {fileID: 117150395161187362, guid: d51a7d3396b416b47bf1306a817d495b, type: 3}
      propertyPath: m_LocalPosition.z
      value: 0
      objectReference: {fileID: 0}
    - target: {fileID: 117150395161187362, guid: d51a7d3396b416b47bf1306a817d495b, type: 3}
      propertyPath: m_LocalRotation.w
      value: 1
      objectReference: {fileID: 0}
    - target: {fileID: 117150395161187362, guid: d51a7d3396b416b47bf1306a817d495b, type: 3}
      propertyPath: m_LocalRotation.x
      value: 0
      objectReference: {fileID: 0}
    - target: {fileID: 117150395161187362, guid: d51a7d3396b416b47bf1306a817d495b, type: 3}
      propertyPath: m_LocalRotation.y
      value: 0
      objectReference: {fileID: 0}
    - target: {fileID: 117150395161187362, guid: d51a7d3396b416b47bf1306a817d495b, type: 3}
      propertyPath: m_LocalRotation.z
      value: 0
      objectReference: {fileID: 0}
    - target: {fileID: 117150395161187362, guid: d51a7d3396b416b47bf1306a817d495b, type: 3}
      propertyPath: m_LocalEulerAnglesHint.x
      value: 0
      objectReference: {fileID: 0}
    - target: {fileID: 117150395161187362, guid: d51a7d3396b416b47bf1306a817d495b, type: 3}
      propertyPath: m_LocalEulerAnglesHint.y
      value: 0
      objectReference: {fileID: 0}
    - target: {fileID: 117150395161187362, guid: d51a7d3396b416b47bf1306a817d495b, type: 3}
      propertyPath: m_LocalEulerAnglesHint.z
      value: 0
      objectReference: {fileID: 0}
    - target: {fileID: 117150395161187363, guid: d51a7d3396b416b47bf1306a817d495b, type: 3}
      propertyPath: m_Name
      value: WildGoat
      objectReference: {fileID: 0}
    m_RemovedComponents: []
    m_RemovedGameObjects: []
    m_AddedGameObjects: []
    m_AddedComponents: []
  m_SourcePrefab: {fileID: 100100000, guid: d51a7d3396b416b47bf1306a817d495b, type: 3}
--- !u!4 &6952176925830105293 stripped
Transform:
  m_CorrespondingSourceObject: {fileID: 117150395161187362, guid: d51a7d3396b416b47bf1306a817d495b, type: 3}
  m_PrefabInstance: {fileID: 7051277734594764015}
  m_PrefabAsset: {fileID: 0}
