%YAML 1.1
%TAG !u! tag:unity3d.com,2011:
--- !u!1001 &3971239843492824987
PrefabInstance:
  m_ObjectHideFlags: 0
  serializedVersion: 2
  m_Modification:
    serializedVersion: 3
    m_TransformParent: {fileID: 4983256878310861346}
    m_Modifications:
    - target: {fileID: 117150395161187362, guid: 2a4a4c054d7b22c468007cc1b9e9059a, type: 3}
      propertyPath: m_LocalScale.x
      value: 0.14534867
      objectReference: {fileID: 0}
    - target: {fileID: 117150395161187362, guid: 2a4a4c054d7b22c468007cc1b9e9059a, type: 3}
      propertyPath: m_LocalScale.y
      value: 0.14534867
      objectReference: {fileID: 0}
    - target: {fileID: 117150395161187362, guid: 2a4a4c054d7b22c468007cc1b9e9059a, type: 3}
      propertyPath: m_LocalScale.z
      value: 1
      objectReference: {fileID: 0}
    - target: {fileID: 117150395161187362, guid: 2a4a4c054d7b22c468007cc1b9e9059a, type: 3}
      propertyPath: m_LocalPosition.x
      value: 0.134
      objectReference: {fileID: 0}
    - target: {fileID: 117150395161187362, guid: 2a4a4c054d7b22c468007cc1b9e9059a, type: 3}
      propertyPath: m_LocalPosition.y
      value: -0.385
      objectReference: {fileID: 0}
    - target: {fileID: 117150395161187362, guid: 2a4a4c054d7b22c468007cc1b9e9059a, type: 3}
      propertyPath: m_LocalPosition.z
      value: 0
      objectReference: {fileID: 0}
    - target: {fileID: 117150395161187362, guid: 2a4a4c054d7b22c468007cc1b9e9059a, type: 3}
      propertyPath: m_LocalRotation.w
      value: 1
      objectReference: {fileID: 0}
    - target: {fileID: 117150395161187362, guid: 2a4a4c054d7b22c468007cc1b9e9059a, type: 3}
      propertyPath: m_LocalRotation.x
      value: 0
      objectReference: {fileID: 0}
    - target: {fileID: 117150395161187362, guid: 2a4a4c054d7b22c468007cc1b9e9059a, type: 3}
      propertyPath: m_LocalRotation.y
      value: 0
      objectReference: {fileID: 0}
    - target: {fileID: 117150395161187362, guid: 2a4a4c054d7b22c468007cc1b9e9059a, type: 3}
      propertyPath: m_LocalRotation.z
      value: 0
      objectReference: {fileID: 0}
    - target: {fileID: 117150395161187362, guid: 2a4a4c054d7b22c468007cc1b9e9059a, type: 3}
      propertyPath: m_LocalEulerAnglesHint.x
      value: 0
      objectReference: {fileID: 0}
    - target: {fileID: 117150395161187362, guid: 2a4a4c054d7b22c468007cc1b9e9059a, type: 3}
      propertyPath: m_LocalEulerAnglesHint.y
      value: 0
      objectReference: {fileID: 0}
    - target: {fileID: 117150395161187362, guid: 2a4a4c054d7b22c468007cc1b9e9059a, type: 3}
      propertyPath: m_LocalEulerAnglesHint.z
      value: 0
      objectReference: {fileID: 0}
    - target: {fileID: 117150395161187363, guid: 2a4a4c054d7b22c468007cc1b9e9059a, type: 3}
      propertyPath: m_Name
      value: Juggernaut
      objectReference: {fileID: 0}
    m_RemovedComponents: []
    m_RemovedGameObjects: []
    m_AddedGameObjects: []
    m_AddedComponents: []
  m_SourcePrefab: {fileID: 100100000, guid: 2a4a4c054d7b22c468007cc1b9e9059a, type: 3}
--- !u!4 &3944201307860341689 stripped
Transform:
  m_CorrespondingSourceObject: {fileID: 117150395161187362, guid: 2a4a4c054d7b22c468007cc1b9e9059a, type: 3}
  m_PrefabInstance: {fileID: 3971239843492824987}
  m_PrefabAsset: {fileID: 0}
--- !u!1001 &5621268803297433999
PrefabInstance:
  m_ObjectHideFlags: 0
  serializedVersion: 2
  m_Modification:
    serializedVersion: 3
    m_TransformParent: {fileID: 0}
    m_Modifications:
    - target: {fileID: 804692479327269805, guid: 9188597511996314cb419da33a325009, type: 3}
      propertyPath: m_LocalPosition.x
      value: 0
      objectReference: {fileID: 0}
    - target: {fileID: 804692479327269805, guid: 9188597511996314cb419da33a325009, type: 3}
      propertyPath: m_LocalPosition.y
      value: 0
      objectReference: {fileID: 0}
    - target: {fileID: 804692479327269805, guid: 9188597511996314cb419da33a325009, type: 3}
      propertyPath: m_LocalPosition.z
      value: 0
      objectReference: {fileID: 0}
    - target: {fileID: 804692479327269805, guid: 9188597511996314cb419da33a325009, type: 3}
      propertyPath: m_LocalRotation.w
      value: 1
      objectReference: {fileID: 0}
    - target: {fileID: 804692479327269805, guid: 9188597511996314cb419da33a325009, type: 3}
      propertyPath: m_LocalRotation.x
      value: 0
      objectReference: {fileID: 0}
    - target: {fileID: 804692479327269805, guid: 9188597511996314cb419da33a325009, type: 3}
      propertyPath: m_LocalRotation.y
      value: 0
      objectReference: {fileID: 0}
    - target: {fileID: 804692479327269805, guid: 9188597511996314cb419da33a325009, type: 3}
      propertyPath: m_LocalRotation.z
      value: 0
      objectReference: {fileID: 0}
    - target: {fileID: 804692479327269805, guid: 9188597511996314cb419da33a325009, type: 3}
      propertyPath: m_LocalEulerAnglesHint.x
      value: 0
      objectReference: {fileID: 0}
    - target: {fileID: 804692479327269805, guid: 9188597511996314cb419da33a325009, type: 3}
      propertyPath: m_LocalEulerAnglesHint.y
      value: 0
      objectReference: {fileID: 0}
    - target: {fileID: 804692479327269805, guid: 9188597511996314cb419da33a325009, type: 3}
      propertyPath: m_LocalEulerAnglesHint.z
      value: 0
      objectReference: {fileID: 0}
    - target: {fileID: 6189145453182058715, guid: 9188597511996314cb419da33a325009, type: 3}
      propertyPath: m_Name
      value: Creature Juggernaut Variant
      objectReference: {fileID: 0}
    m_RemovedComponents: []
    m_RemovedGameObjects: []
    m_AddedGameObjects:
    - targetCorrespondingSourceObject: {fileID: 804692479327269805, guid: 9188597511996314cb419da33a325009, type: 3}
      insertIndex: -1
      addedObject: {fileID: 3944201307860341689}
    m_AddedComponents: []
  m_SourcePrefab: {fileID: 100100000, guid: 9188597511996314cb419da33a325009, type: 3}
--- !u!4 &4983256878310861346 stripped
Transform:
  m_CorrespondingSourceObject: {fileID: 804692479327269805, guid: 9188597511996314cb419da33a325009, type: 3}
  m_PrefabInstance: {fileID: 5621268803297433999}
  m_PrefabAsset: {fileID: 0}
