%YAML 1.1
%TAG !u! tag:unity3d.com,2011:
--- !u!1001 &8393102854519315091
PrefabInstance:
  m_ObjectHideFlags: 0
  serializedVersion: 2
  m_Modification:
    serializedVersion: 3
    m_TransformParent: {fileID: 8562322082583493310}
    m_Modifications:
    - target: {fileID: 1974649835967953598, guid: de79d9226946d6140bb85bb9df9f4953, type: 3}
      propertyPath: m_LocalScale.x
      value: 0.25164217
      objectReference: {fileID: 0}
    - target: {fileID: 1974649835967953598, guid: de79d9226946d6140bb85bb9df9f4953, type: 3}
      propertyPath: m_LocalScale.y
      value: 0.25164217
      objectReference: {fileID: 0}
    - target: {fileID: 1974649835967953598, guid: de79d9226946d6140bb85bb9df9f4953, type: 3}
      propertyPath: m_LocalScale.z
      value: 1
      objectReference: {fileID: 0}
    - target: {fileID: 1974649835967953598, guid: de79d9226946d6140bb85bb9df9f4953, type: 3}
      propertyPath: m_LocalPosition.x
      value: 0.009
      objectReference: {fileID: 0}
    - target: {fileID: 1974649835967953598, guid: de79d9226946d6140bb85bb9df9f4953, type: 3}
      propertyPath: m_LocalPosition.y
      value: -0.344
      objectReference: {fileID: 0}
    - target: {fileID: 1974649835967953598, guid: de79d9226946d6140bb85bb9df9f4953, type: 3}
      propertyPath: m_LocalPosition.z
      value: 0
      objectReference: {fileID: 0}
    - target: {fileID: 1974649835967953598, guid: de79d9226946d6140bb85bb9df9f4953, type: 3}
      propertyPath: m_LocalRotation.w
      value: 1
      objectReference: {fileID: 0}
    - target: {fileID: 1974649835967953598, guid: de79d9226946d6140bb85bb9df9f4953, type: 3}
      propertyPath: m_LocalRotation.x
      value: 0
      objectReference: {fileID: 0}
    - target: {fileID: 1974649835967953598, guid: de79d9226946d6140bb85bb9df9f4953, type: 3}
      propertyPath: m_LocalRotation.y
      value: 0
      objectReference: {fileID: 0}
    - target: {fileID: 1974649835967953598, guid: de79d9226946d6140bb85bb9df9f4953, type: 3}
      propertyPath: m_LocalRotation.z
      value: 0
      objectReference: {fileID: 0}
    - target: {fileID: 1974649835967953598, guid: de79d9226946d6140bb85bb9df9f4953, type: 3}
      propertyPath: m_LocalEulerAnglesHint.x
      value: 0
      objectReference: {fileID: 0}
    - target: {fileID: 1974649835967953598, guid: de79d9226946d6140bb85bb9df9f4953, type: 3}
      propertyPath: m_LocalEulerAnglesHint.y
      value: 0
      objectReference: {fileID: 0}
    - target: {fileID: 1974649835967953598, guid: de79d9226946d6140bb85bb9df9f4953, type: 3}
      propertyPath: m_LocalEulerAnglesHint.z
      value: 0
      objectReference: {fileID: 0}
    - target: {fileID: 5771025906570419322, guid: de79d9226946d6140bb85bb9df9f4953, type: 3}
      propertyPath: m_Name
      value: SlugQueen
      objectReference: {fileID: 0}
    m_RemovedComponents: []
    m_RemovedGameObjects: []
    m_AddedGameObjects: []
    m_AddedComponents: []
  m_SourcePrefab: {fileID: 100100000, guid: de79d9226946d6140bb85bb9df9f4953, type: 3}
--- !u!4 &8006581016642183213 stripped
Transform:
  m_CorrespondingSourceObject: {fileID: 1974649835967953598, guid: de79d9226946d6140bb85bb9df9f4953, type: 3}
  m_PrefabInstance: {fileID: 8393102854519315091}
  m_PrefabAsset: {fileID: 0}
--- !u!1001 &9077476852454770963
PrefabInstance:
  m_ObjectHideFlags: 0
  serializedVersion: 2
  m_Modification:
    serializedVersion: 3
    m_TransformParent: {fileID: 0}
    m_Modifications:
    - target: {fileID: 804692479327269805, guid: 9188597511996314cb419da33a325009, type: 3}
      propertyPath: m_LocalPosition.x
      value: 0
      objectReference: {fileID: 0}
    - target: {fileID: 804692479327269805, guid: 9188597511996314cb419da33a325009, type: 3}
      propertyPath: m_LocalPosition.y
      value: 0
      objectReference: {fileID: 0}
    - target: {fileID: 804692479327269805, guid: 9188597511996314cb419da33a325009, type: 3}
      propertyPath: m_LocalPosition.z
      value: 0
      objectReference: {fileID: 0}
    - target: {fileID: 804692479327269805, guid: 9188597511996314cb419da33a325009, type: 3}
      propertyPath: m_LocalRotation.w
      value: 1
      objectReference: {fileID: 0}
    - target: {fileID: 804692479327269805, guid: 9188597511996314cb419da33a325009, type: 3}
      propertyPath: m_LocalRotation.x
      value: 0
      objectReference: {fileID: 0}
    - target: {fileID: 804692479327269805, guid: 9188597511996314cb419da33a325009, type: 3}
      propertyPath: m_LocalRotation.y
      value: 0
      objectReference: {fileID: 0}
    - target: {fileID: 804692479327269805, guid: 9188597511996314cb419da33a325009, type: 3}
      propertyPath: m_LocalRotation.z
      value: 0
      objectReference: {fileID: 0}
    - target: {fileID: 804692479327269805, guid: 9188597511996314cb419da33a325009, type: 3}
      propertyPath: m_LocalEulerAnglesHint.x
      value: 0
      objectReference: {fileID: 0}
    - target: {fileID: 804692479327269805, guid: 9188597511996314cb419da33a325009, type: 3}
      propertyPath: m_LocalEulerAnglesHint.y
      value: 0
      objectReference: {fileID: 0}
    - target: {fileID: 804692479327269805, guid: 9188597511996314cb419da33a325009, type: 3}
      propertyPath: m_LocalEulerAnglesHint.z
      value: 0
      objectReference: {fileID: 0}
    - target: {fileID: 6189145453182058715, guid: 9188597511996314cb419da33a325009, type: 3}
      propertyPath: m_Name
      value: Creature Slug Queen Variant
      objectReference: {fileID: 0}
    m_RemovedComponents: []
    m_RemovedGameObjects: []
    m_AddedGameObjects:
    - targetCorrespondingSourceObject: {fileID: 804692479327269805, guid: 9188597511996314cb419da33a325009, type: 3}
      insertIndex: -1
      addedObject: {fileID: 8006581016642183213}
    m_AddedComponents: []
  m_SourcePrefab: {fileID: 100100000, guid: 9188597511996314cb419da33a325009, type: 3}
--- !u!4 &8562322082583493310 stripped
Transform:
  m_CorrespondingSourceObject: {fileID: 804692479327269805, guid: 9188597511996314cb419da33a325009, type: 3}
  m_PrefabInstance: {fileID: 9077476852454770963}
  m_PrefabAsset: {fileID: 0}
