%YAML 1.1
%TAG !u! tag:unity3d.com,2011:
--- !u!114 &11400000
MonoBehaviour:
  m_ObjectHideFlags: 0
  m_CorrespondingSourceObject: {fileID: 0}
  m_PrefabInstance: {fileID: 0}
  m_PrefabAsset: {fileID: 0}
  m_GameObject: {fileID: 0}
  m_Enabled: 1
  m_EditorHideFlags: 0
  m_Script: {fileID: 11500000, guid: 2540f93253b74e1eb5c5d6120adbe27d, type: 3}
  m_Name: Quality Creature Data _Template 3_Uncommon
  m_EditorClassIdentifier: 
  _unitData: {fileID: 11400000, guid: 3a57144ef792c824bb7fb3633473dd7d, type: 2}
  _qualityType: {fileID: 11400000, guid: 16161332d6f41b049b8f96dfc3c29895, type: 2}
  _icon: {fileID: 21300000, guid: dbde29a5ac47f6a49b8d6ebf194c328b, type: 3}
  _creatureControllerPrefab: {fileID: 720990208763476112, guid: 3db6585ae0503fb44af09d0e57d73967, type: 3}
  _preview: {fileID: 8316402779051580184, guid: fd3be1810dbc8cc48a33680193f89d40, type: 3}
