%YAML 1.1
%TAG !u! tag:unity3d.com,2011:
--- !u!114 &11400000
MonoBehaviour:
  m_ObjectHideFlags: 0
  m_CorrespondingSourceObject: {fileID: 0}
  m_PrefabInstance: {fileID: 0}
  m_PrefabAsset: {fileID: 0}
  m_GameObject: {fileID: 0}
  m_Enabled: 1
  m_EditorHideFlags: 0
  m_Script: {fileID: 11500000, guid: 3ea953238501401fb1293815cbbaa98d, type: 3}
  m_Name: Enemies Data Container
  m_EditorClassIdentifier: 
  _data:
  - {fileID: 11400000, guid: e40c2683ba26f0e4596360e42c98d9fc, type: 2}
  - {fileID: 11400000, guid: 288c3c80469482e44b8de77798d07f1f, type: 2}
  - {fileID: 11400000, guid: b5765c591562023448d54e024f8f8c84, type: 2}
  - {fileID: 11400000, guid: d251b980fc0652b48858ba2f75b6cbd4, type: 2}
  - {fileID: 11400000, guid: fb99652a66aa0eb4aadd0e5918453764, type: 2}
  - {fileID: 11400000, guid: e9ebd99f55ebf634387d6c5a9f897b1f, type: 2}
  - {fileID: 11400000, guid: d4a9aeced67437c439b8ee89937093da, type: 2}
  - {fileID: 11400000, guid: 64da7d3efa251904cbff751e6b117641, type: 2}
  - {fileID: 11400000, guid: 8be96092f2e457a4d993b3cd96f12b4b, type: 2}
  - {fileID: 11400000, guid: e34fca4e188c91c4fbce7f057926d510, type: 2}
  - {fileID: 11400000, guid: 0462e84aae1fef7478c876ade82c8e20, type: 2}
  - {fileID: 11400000, guid: 74fe3ece12ace6647b59c6a5084f14be, type: 2}
