%YAML 1.1
%TAG !u! tag:unity3d.com,2011:
--- !u!1001 &2924650511017159870
PrefabInstance:
  m_ObjectHideFlags: 0
  serializedVersion: 2
  m_Modification:
    serializedVersion: 3
    m_TransformParent: {fileID: 0}
    m_Modifications:
    - target: {fileID: 1115289087868830140, guid: 42669d07d630dcc409ab4d911e3ae4ce, type: 3}
      propertyPath: m_Radius
      value: 0.3
      objectReference: {fileID: 0}
    - target: {fileID: 6144209632556699035, guid: 42669d07d630dcc409ab4d911e3ae4ce, type: 3}
      propertyPath: m_Name
      value: Enemy Orc Junior
      objectReference: {fileID: 0}
    - target: {fileID: 7706396135121451653, guid: 42669d07d630dcc409ab4d911e3ae4ce, type: 3}
      propertyPath: m_LocalPosition.x
      value: 0
      objectReference: {fileID: 0}
    - target: {fileID: 7706396135121451653, guid: 42669d07d630dcc409ab4d911e3ae4ce, type: 3}
      propertyPath: m_LocalPosition.y
      value: 0
      objectReference: {fileID: 0}
    - target: {fileID: 7706396135121451653, guid: 42669d07d630dcc409ab4d911e3ae4ce, type: 3}
      propertyPath: m_LocalPosition.z
      value: 0
      objectReference: {fileID: 0}
    - target: {fileID: 7706396135121451653, guid: 42669d07d630dcc409ab4d911e3ae4ce, type: 3}
      propertyPath: m_LocalRotation.w
      value: 1
      objectReference: {fileID: 0}
    - target: {fileID: 7706396135121451653, guid: 42669d07d630dcc409ab4d911e3ae4ce, type: 3}
      propertyPath: m_LocalRotation.x
      value: 0
      objectReference: {fileID: 0}
    - target: {fileID: 7706396135121451653, guid: 42669d07d630dcc409ab4d911e3ae4ce, type: 3}
      propertyPath: m_LocalRotation.y
      value: 0
      objectReference: {fileID: 0}
    - target: {fileID: 7706396135121451653, guid: 42669d07d630dcc409ab4d911e3ae4ce, type: 3}
      propertyPath: m_LocalRotation.z
      value: 0
      objectReference: {fileID: 0}
    - target: {fileID: 7706396135121451653, guid: 42669d07d630dcc409ab4d911e3ae4ce, type: 3}
      propertyPath: m_LocalEulerAnglesHint.x
      value: 0
      objectReference: {fileID: 0}
    - target: {fileID: 7706396135121451653, guid: 42669d07d630dcc409ab4d911e3ae4ce, type: 3}
      propertyPath: m_LocalEulerAnglesHint.y
      value: 0
      objectReference: {fileID: 0}
    - target: {fileID: 7706396135121451653, guid: 42669d07d630dcc409ab4d911e3ae4ce, type: 3}
      propertyPath: m_LocalEulerAnglesHint.z
      value: 0
      objectReference: {fileID: 0}
    m_RemovedComponents: []
    m_RemovedGameObjects:
    - {fileID: 6523407857029767819, guid: 42669d07d630dcc409ab4d911e3ae4ce, type: 3}
    m_AddedGameObjects:
    - targetCorrespondingSourceObject: {fileID: 7706396135121451653, guid: 42669d07d630dcc409ab4d911e3ae4ce, type: 3}
      insertIndex: -1
      addedObject: {fileID: 5315185843714316842}
    m_AddedComponents: []
  m_SourcePrefab: {fileID: 100100000, guid: 42669d07d630dcc409ab4d911e3ae4ce, type: 3}
--- !u!4 &4784208535016494651 stripped
Transform:
  m_CorrespondingSourceObject: {fileID: 7706396135121451653, guid: 42669d07d630dcc409ab4d911e3ae4ce, type: 3}
  m_PrefabInstance: {fileID: 2924650511017159870}
  m_PrefabAsset: {fileID: 0}
--- !u!1001 &5317722329924614388
PrefabInstance:
  m_ObjectHideFlags: 0
  serializedVersion: 2
  m_Modification:
    serializedVersion: 3
    m_TransformParent: {fileID: 4784208535016494651}
    m_Modifications:
    - target: {fileID: 1536174974547902, guid: 30cb65c63a4ddd64a9d5afd9c4bbd523, type: 3}
      propertyPath: m_Name
      value: Orc
      objectReference: {fileID: 0}
    - target: {fileID: 4236512666804958, guid: 30cb65c63a4ddd64a9d5afd9c4bbd523, type: 3}
      propertyPath: m_LocalScale.x
      value: 0.1
      objectReference: {fileID: 0}
    - target: {fileID: 4236512666804958, guid: 30cb65c63a4ddd64a9d5afd9c4bbd523, type: 3}
      propertyPath: m_LocalScale.y
      value: 0.1
      objectReference: {fileID: 0}
    - target: {fileID: 4236512666804958, guid: 30cb65c63a4ddd64a9d5afd9c4bbd523, type: 3}
      propertyPath: m_LocalPosition.x
      value: 0
      objectReference: {fileID: 0}
    - target: {fileID: 4236512666804958, guid: 30cb65c63a4ddd64a9d5afd9c4bbd523, type: 3}
      propertyPath: m_LocalPosition.y
      value: -0.25
      objectReference: {fileID: 0}
    - target: {fileID: 4236512666804958, guid: 30cb65c63a4ddd64a9d5afd9c4bbd523, type: 3}
      propertyPath: m_LocalPosition.z
      value: 0
      objectReference: {fileID: 0}
    - target: {fileID: 4236512666804958, guid: 30cb65c63a4ddd64a9d5afd9c4bbd523, type: 3}
      propertyPath: m_LocalRotation.w
      value: 1
      objectReference: {fileID: 0}
    - target: {fileID: 4236512666804958, guid: 30cb65c63a4ddd64a9d5afd9c4bbd523, type: 3}
      propertyPath: m_LocalRotation.x
      value: -0
      objectReference: {fileID: 0}
    - target: {fileID: 4236512666804958, guid: 30cb65c63a4ddd64a9d5afd9c4bbd523, type: 3}
      propertyPath: m_LocalRotation.y
      value: -0
      objectReference: {fileID: 0}
    - target: {fileID: 4236512666804958, guid: 30cb65c63a4ddd64a9d5afd9c4bbd523, type: 3}
      propertyPath: m_LocalRotation.z
      value: -0
      objectReference: {fileID: 0}
    - target: {fileID: 4236512666804958, guid: 30cb65c63a4ddd64a9d5afd9c4bbd523, type: 3}
      propertyPath: m_LocalEulerAnglesHint.x
      value: 0
      objectReference: {fileID: 0}
    - target: {fileID: 4236512666804958, guid: 30cb65c63a4ddd64a9d5afd9c4bbd523, type: 3}
      propertyPath: m_LocalEulerAnglesHint.y
      value: 0
      objectReference: {fileID: 0}
    - target: {fileID: 4236512666804958, guid: 30cb65c63a4ddd64a9d5afd9c4bbd523, type: 3}
      propertyPath: m_LocalEulerAnglesHint.z
      value: 0
      objectReference: {fileID: 0}
    m_RemovedComponents: []
    m_RemovedGameObjects: []
    m_AddedGameObjects: []
    m_AddedComponents: []
  m_SourcePrefab: {fileID: 100100000, guid: 30cb65c63a4ddd64a9d5afd9c4bbd523, type: 3}
--- !u!4 &5315185843714316842 stripped
Transform:
  m_CorrespondingSourceObject: {fileID: 4236512666804958, guid: 30cb65c63a4ddd64a9d5afd9c4bbd523, type: 3}
  m_PrefabInstance: {fileID: 5317722329924614388}
  m_PrefabAsset: {fileID: 0}
