%YAML 1.1
%TAG !u! tag:unity3d.com,2011:
--- !u!1001 &3652490038305280934
PrefabInstance:
  m_ObjectHideFlags: 0
  serializedVersion: 2
  m_Modification:
    serializedVersion: 3
    m_TransformParent: {fileID: 0}
    m_Modifications:
    - target: {fileID: 1115289087868830140, guid: 42669d07d630dcc409ab4d911e3ae4ce, type: 3}
      propertyPath: m_Radius
      value: 0.3
      objectReference: {fileID: 0}
    - target: {fileID: 6144209632556699035, guid: 42669d07d630dcc409ab4d911e3ae4ce, type: 3}
      propertyPath: m_Name
      value: Enemy Orc Middle
      objectReference: {fileID: 0}
    - target: {fileID: 7706396135121451653, guid: 42669d07d630dcc409ab4d911e3ae4ce, type: 3}
      propertyPath: m_LocalPosition.x
      value: 0
      objectReference: {fileID: 0}
    - target: {fileID: 7706396135121451653, guid: 42669d07d630dcc409ab4d911e3ae4ce, type: 3}
      propertyPath: m_LocalPosition.y
      value: 0
      objectReference: {fileID: 0}
    - target: {fileID: 7706396135121451653, guid: 42669d07d630dcc409ab4d911e3ae4ce, type: 3}
      propertyPath: m_LocalPosition.z
      value: 0
      objectReference: {fileID: 0}
    - target: {fileID: 7706396135121451653, guid: 42669d07d630dcc409ab4d911e3ae4ce, type: 3}
      propertyPath: m_LocalRotation.w
      value: 1
      objectReference: {fileID: 0}
    - target: {fileID: 7706396135121451653, guid: 42669d07d630dcc409ab4d911e3ae4ce, type: 3}
      propertyPath: m_LocalRotation.x
      value: 0
      objectReference: {fileID: 0}
    - target: {fileID: 7706396135121451653, guid: 42669d07d630dcc409ab4d911e3ae4ce, type: 3}
      propertyPath: m_LocalRotation.y
      value: 0
      objectReference: {fileID: 0}
    - target: {fileID: 7706396135121451653, guid: 42669d07d630dcc409ab4d911e3ae4ce, type: 3}
      propertyPath: m_LocalRotation.z
      value: 0
      objectReference: {fileID: 0}
    - target: {fileID: 7706396135121451653, guid: 42669d07d630dcc409ab4d911e3ae4ce, type: 3}
      propertyPath: m_LocalEulerAnglesHint.x
      value: 0
      objectReference: {fileID: 0}
    - target: {fileID: 7706396135121451653, guid: 42669d07d630dcc409ab4d911e3ae4ce, type: 3}
      propertyPath: m_LocalEulerAnglesHint.y
      value: 0
      objectReference: {fileID: 0}
    - target: {fileID: 7706396135121451653, guid: 42669d07d630dcc409ab4d911e3ae4ce, type: 3}
      propertyPath: m_LocalEulerAnglesHint.z
      value: 0
      objectReference: {fileID: 0}
    m_RemovedComponents: []
    m_RemovedGameObjects:
    - {fileID: 6523407857029767819, guid: 42669d07d630dcc409ab4d911e3ae4ce, type: 3}
    m_AddedGameObjects:
    - targetCorrespondingSourceObject: {fileID: 7706396135121451653, guid: 42669d07d630dcc409ab4d911e3ae4ce, type: 3}
      insertIndex: -1
      addedObject: {fileID: 8632484513157499564}
    m_AddedComponents: []
  m_SourcePrefab: {fileID: 100100000, guid: 42669d07d630dcc409ab4d911e3ae4ce, type: 3}
--- !u!4 &6359889865345968419 stripped
Transform:
  m_CorrespondingSourceObject: {fileID: 7706396135121451653, guid: 42669d07d630dcc409ab4d911e3ae4ce, type: 3}
  m_PrefabInstance: {fileID: 3652490038305280934}
  m_PrefabAsset: {fileID: 0}
--- !u!1001 &8629939190840633458
PrefabInstance:
  m_ObjectHideFlags: 0
  serializedVersion: 2
  m_Modification:
    serializedVersion: 3
    m_TransformParent: {fileID: 6359889865345968419}
    m_Modifications:
    - target: {fileID: 1536174974547902, guid: 6810875701b3ac14b9609d4af5234fb6, type: 3}
      propertyPath: m_Name
      value: Orc
      objectReference: {fileID: 0}
    - target: {fileID: 4236512666804958, guid: 6810875701b3ac14b9609d4af5234fb6, type: 3}
      propertyPath: m_LocalScale.x
      value: 0.1
      objectReference: {fileID: 0}
    - target: {fileID: 4236512666804958, guid: 6810875701b3ac14b9609d4af5234fb6, type: 3}
      propertyPath: m_LocalScale.y
      value: 0.1
      objectReference: {fileID: 0}
    - target: {fileID: 4236512666804958, guid: 6810875701b3ac14b9609d4af5234fb6, type: 3}
      propertyPath: m_LocalPosition.x
      value: 0
      objectReference: {fileID: 0}
    - target: {fileID: 4236512666804958, guid: 6810875701b3ac14b9609d4af5234fb6, type: 3}
      propertyPath: m_LocalPosition.y
      value: -0.25
      objectReference: {fileID: 0}
    - target: {fileID: 4236512666804958, guid: 6810875701b3ac14b9609d4af5234fb6, type: 3}
      propertyPath: m_LocalPosition.z
      value: 0
      objectReference: {fileID: 0}
    - target: {fileID: 4236512666804958, guid: 6810875701b3ac14b9609d4af5234fb6, type: 3}
      propertyPath: m_LocalRotation.w
      value: 1
      objectReference: {fileID: 0}
    - target: {fileID: 4236512666804958, guid: 6810875701b3ac14b9609d4af5234fb6, type: 3}
      propertyPath: m_LocalRotation.x
      value: -0
      objectReference: {fileID: 0}
    - target: {fileID: 4236512666804958, guid: 6810875701b3ac14b9609d4af5234fb6, type: 3}
      propertyPath: m_LocalRotation.y
      value: -0
      objectReference: {fileID: 0}
    - target: {fileID: 4236512666804958, guid: 6810875701b3ac14b9609d4af5234fb6, type: 3}
      propertyPath: m_LocalRotation.z
      value: -0
      objectReference: {fileID: 0}
    - target: {fileID: 4236512666804958, guid: 6810875701b3ac14b9609d4af5234fb6, type: 3}
      propertyPath: m_LocalEulerAnglesHint.x
      value: 0
      objectReference: {fileID: 0}
    - target: {fileID: 4236512666804958, guid: 6810875701b3ac14b9609d4af5234fb6, type: 3}
      propertyPath: m_LocalEulerAnglesHint.y
      value: 0
      objectReference: {fileID: 0}
    - target: {fileID: 4236512666804958, guid: 6810875701b3ac14b9609d4af5234fb6, type: 3}
      propertyPath: m_LocalEulerAnglesHint.z
      value: 0
      objectReference: {fileID: 0}
    m_RemovedComponents: []
    m_RemovedGameObjects: []
    m_AddedGameObjects: []
    m_AddedComponents: []
  m_SourcePrefab: {fileID: 100100000, guid: 6810875701b3ac14b9609d4af5234fb6, type: 3}
--- !u!4 &8632484513157499564 stripped
Transform:
  m_CorrespondingSourceObject: {fileID: 4236512666804958, guid: 6810875701b3ac14b9609d4af5234fb6, type: 3}
  m_PrefabInstance: {fileID: 8629939190840633458}
  m_PrefabAsset: {fileID: 0}
