%YAML 1.1
%TAG !u! tag:unity3d.com,2011:
--- !u!114 &11400000
MonoBehaviour:
  m_ObjectHideFlags: 0
  m_CorrespondingSourceObject: {fileID: 0}
  m_PrefabInstance: {fileID: 0}
  m_PrefabAsset: {fileID: 0}
  m_GameObject: {fileID: 0}
  m_Enabled: 1
  m_EditorHideFlags: 0
  m_Script: {fileID: 11500000, guid: 501b29b988034b279d15567ecfa88889, type: 3}
  m_Name: Unit Type Astral
  m_EditorClassIdentifier: 
  _name: Astral
  _icon: {fileID: 21300000, guid: b131425b569e44f46a59afe489d9bc7f, type: 3}
  _color: {r: 0.039215688, g: 0.7490196, b: 0.7411765, a: 1}
  _advantage: {fileID: 11400000, guid: 587a306aec2ba3d4fa823d6321a7edf4, type: 2}
  _disadvantage: {fileID: 11400000, guid: 5562ba8a815d37a418c7523cd78d56d3, type: 2}
