%YAML 1.1
%TAG !u! tag:unity3d.com,2011:
--- !u!114 &11400000
MonoBehaviour:
  m_ObjectHideFlags: 0
  m_CorrespondingSourceObject: {fileID: 0}
  m_PrefabInstance: {fileID: 0}
  m_PrefabAsset: {fileID: 0}
  m_GameObject: {fileID: 0}
  m_Enabled: 1
  m_EditorHideFlags: 0
  m_Script: {fileID: 11500000, guid: 501b29b988034b279d15567ecfa88889, type: 3}
  m_Name: Unit Type Animal
  m_EditorClassIdentifier: 
  _name: Animal
  _icon: {fileID: 21300000, guid: a71091000180b074c9f6253f81617806, type: 3}
  _color: {r: 0.9607844, g: 0.16862746, b: 0.20784315, a: 1}
  _advantage: {fileID: 11400000, guid: c191d7bbf89a24a42b1db595cd622e7e, type: 2}
  _disadvantage: {fileID: 11400000, guid: 11f4f22811525594baa0e47a87084274, type: 2}
