%YAML 1.1
%TAG !u! tag:unity3d.com,2011:
--- !u!114 &11400000
MonoBehaviour:
  m_ObjectHideFlags: 0
  m_CorrespondingSourceObject: {fileID: 0}
  m_PrefabInstance: {fileID: 0}
  m_PrefabAsset: {fileID: 0}
  m_GameObject: {fileID: 0}
  m_Enabled: 1
  m_EditorHideFlags: 0
  m_Script: {fileID: 11500000, guid: 2540f93253b74e1eb5c5d6120adbe27d, type: 3}
  m_Name: Quality Creature Data _Template 4_Rare
  m_EditorClassIdentifier: 
  _unitData: {fileID: 11400000, guid: 8af49493f55623147a7918fba6d299f0, type: 2}
  _qualityType: {fileID: 11400000, guid: b73bb9707da56ae43ab422b3d11142dc, type: 2}
  _icon: {fileID: 21300000, guid: 9c66c27c0666e8741b7034cdb294d8e1, type: 3}
  _creatureControllerPrefab: {fileID: 6802014479412137268, guid: 680662cb2a27518438fd985204d87c50, type: 3}
  _preview: {fileID: 2069015975501184387, guid: c4de079c74bed7f4ab57a0f99dd7bf90, type: 3}
