%YAML 1.1
%TAG !u! tag:unity3d.com,2011:
--- !u!114 &11400000
MonoBehaviour:
  m_ObjectHideFlags: 0
  m_CorrespondingSourceObject: {fileID: 0}
  m_PrefabInstance: {fileID: 0}
  m_PrefabAsset: {fileID: 0}
  m_GameObject: {fileID: 0}
  m_Enabled: 1
  m_EditorHideFlags: 0
  m_Script: {fileID: 11500000, guid: a20e889a15f34f0da8f609954ae263bf, type: 3}
  m_Name: Creature Data Ox
  m_EditorClassIdentifier: 
  _name: Ox
  _description: 
  _unitType: {fileID: 11400000, guid: 7ad665d2be6a1d8458764fc10ce74ea1, type: 2}
  _abilitySlotsData:
    _weaponAbilitySlotData:
      _firstAbility: {fileID: 11400000, guid: 3e96360e090232442b23a78a7716edd7, type: 2}
      _secondAbility: {fileID: 11400000, guid: 9d5ea2671abc0c14ab063ab5d70213ff, type: 2}
    _firstAbilitySlotData:
      _firstAbility: {fileID: 11400000, guid: ee32ecd9bcf4f8242868346b2b7c1cb2, type: 2}
      _secondAbility: {fileID: 11400000, guid: fe4d745fb29444542be3734102d7c21c, type: 2}
    _secondAbilitySlotData:
      _firstAbility: {fileID: 11400000, guid: c71c632382ad20241a04cb21a38f8a7a, type: 2}
      _secondAbility: {fileID: 11400000, guid: 7cbfd53fd44d2a2499c6eaacf491c418, type: 2}
