%YAML 1.1
%TAG !u! tag:unity3d.com,2011:
--- !u!114 &11400000
MonoBehaviour:
  m_ObjectHideFlags: 0
  m_CorrespondingSourceObject: {fileID: 0}
  m_PrefabInstance: {fileID: 0}
  m_PrefabAsset: {fileID: 0}
  m_GameObject: {fileID: 0}
  m_Enabled: 1
  m_EditorHideFlags: 0
  m_Script: {fileID: 11500000, guid: ea921b463992420997dea87464a9c147, type: 3}
  m_Name: Enemy Data Orc QL 3
  m_EditorClassIdentifier: 
  _unitData: {fileID: 11400000, guid: ba7c39989bbbb5346bdba7ec61f96b9b, type: 2}
  _qualityType: {fileID: 11400000, guid: 16161332d6f41b049b8f96dfc3c29895, type: 2}
  _icon: {fileID: 21300000, guid: 05827befd4084bf439cba6540f2dea47, type: 3}
  _stats:
    _maxHealth: 4
    _speed: 1
    _reward: 2
    _damage: 1
  _prefab: {fileID: 793607084093168885, guid: a0d524191b6e4344db0ba24c3addcd37, type: 3}
