%YAML 1.1
%TAG !u! tag:unity3d.com,2011:
--- !u!114 &11400000
MonoBehaviour:
  m_ObjectHideFlags: 0
  m_CorrespondingSourceObject: {fileID: 0}
  m_PrefabInstance: {fileID: 0}
  m_PrefabAsset: {fileID: 0}
  m_GameObject: {fileID: 0}
  m_Enabled: 1
  m_EditorHideFlags: 0
  m_Script: {fileID: 11500000, guid: 2540f93253b74e1eb5c5d6120adbe27d, type: 3}
  m_Name: Quality Creature Data _Template 5_Epic
  m_EditorClassIdentifier: 
  _unitData: {fileID: 11400000, guid: b819f4eed1b0fe14b9e396c8cecb7ac7, type: 2}
  _qualityType: {fileID: 11400000, guid: 64b250d5ba2b9cc44ac8b6ddd8aa306a, type: 2}
  _icon: {fileID: 21300000, guid: e177380279c9a4c41ad2672c3796fe4c, type: 3}
  _creatureControllerPrefab: {fileID: 3098772587235640993, guid: 655200b077b3c2944bc6da61afbf788d, type: 3}
  _preview: {fileID: 1423470163212545534, guid: 7a91a9dc27af68643b23b4792836e70a, type: 3}
