%YAML 1.1
%TAG !u! tag:unity3d.com,2011:
--- !u!114 &11400000
MonoBehaviour:
  m_ObjectHideFlags: 0
  m_CorrespondingSourceObject: {fileID: 0}
  m_PrefabInstance: {fileID: 0}
  m_PrefabAsset: {fileID: 0}
  m_GameObject: {fileID: 0}
  m_Enabled: 1
  m_EditorHideFlags: 0
  m_Script: {fileID: 11500000, guid: 2540f93253b74e1eb5c5d6120adbe27d, type: 3}
  m_Name: Quality Creature Data _Template 6_Legendary
  m_EditorClassIdentifier: 
  _unitData: {fileID: 11400000, guid: a675d3b0bd4892f4c98122d7a6164e3d, type: 2}
  _qualityType: {fileID: 11400000, guid: 68082c398e041ca4198cf8513bc77cf9, type: 2}
  _icon: {fileID: 21300000, guid: 1199d0938dc0ffe4e8f79d281edd7213, type: 3}
  _creatureControllerPrefab: {fileID: 5643073897861546356, guid: 0fb4124779af9a54cad5c0b23adb7022, type: 3}
  _preview: {fileID: 5771025906570419322, guid: 48fb138254009d848982b13be4abef85, type: 3}
