%YAML 1.1
%TAG !u! tag:unity3d.com,2011:
--- !u!114 &11400000
MonoBehaviour:
  m_ObjectHideFlags: 0
  m_CorrespondingSourceObject: {fileID: 0}
  m_PrefabInstance: {fileID: 0}
  m_PrefabAsset: {fileID: 0}
  m_GameObject: {fileID: 0}
  m_Enabled: 1
  m_EditorHideFlags: 0
  m_Script: {fileID: 11500000, guid: a79afb3f2a7f4862933abfdf2763b044, type: 3}
  m_Name: Level Data 6
  m_EditorClassIdentifier: 
  _levelInfo:
    _name: Ancient Gates
    _description: 
  _levelWaves:
    _waves:
    - _spawnersOnWave:
      - _waveParts:
        - _enemyDataByQuality: {fileID: 11400000, guid: e40c2683ba26f0e4596360e42c98d9fc, type: 2}
          _count: 1
          _interval: 0
          _startDelay: 0
  _levelMapPrefab: {fileID: 3607666751279850167, guid: e1f73f15e60c8734fa8d7a5e708c36c4, type: 3}
  _baseLevelStats: {fileID: 11400000, guid: 5f52b8016c4f64d458212330f607307c, type: 2}
  _previousLevel: {fileID: 11400000, guid: 75a3d7b4a14d0b44c88bf71997723e46, type: 2}
