%YAML 1.1
%TAG !u! tag:unity3d.com,2011:
--- !u!114 &11400000
MonoBehaviour:
  m_ObjectHideFlags: 0
  m_CorrespondingSourceObject: {fileID: 0}
  m_PrefabInstance: {fileID: 0}
  m_PrefabAsset: {fileID: 0}
  m_GameObject: {fileID: 0}
  m_Enabled: 1
  m_EditorHideFlags: 0
  m_Script: {fileID: 11500000, guid: 2540f93253b74e1eb5c5d6120adbe27d, type: 3}
  m_Name: Quality Creature Data _Template 2_Good
  m_EditorClassIdentifier: 
  _unitData: {fileID: 11400000, guid: dabfb1e6f568a29408360576431562e8, type: 2}
  _qualityType: {fileID: 11400000, guid: c601295504566dd41a5be60d9dbac4fe, type: 2}
  _icon: {fileID: 21300000, guid: 4dce12532252bfd4695194c0849f2a5a, type: 3}
  _creatureControllerPrefab: {fileID: 4811808602617809635, guid: 8c71ccc771827d64c8ba1cf278d94e5b, type: 3}
  _preview: {fileID: 5771025906570419322, guid: b9d32bdf7741c4e4f89c1b22a0e1077d, type: 3}
