%YAML 1.1
%TAG !u! tag:unity3d.com,2011:
--- !u!114 &11400000
MonoBehaviour:
  m_ObjectHideFlags: 0
  m_CorrespondingSourceObject: {fileID: 0}
  m_PrefabInstance: {fileID: 0}
  m_PrefabAsset: {fileID: 0}
  m_GameObject: {fileID: 0}
  m_Enabled: 1
  m_EditorHideFlags: 0
  m_Script: {fileID: 11500000, guid: d558fc1734f24da8a75825c7fa86d0b4, type: 3}
  m_Name: Create Game Managers Launch Task
  m_EditorClassIdentifier: 
  _worldMarkPrefabsData: {fileID: 11400000, guid: 5fab99f4213974748945b758e81ad10c, type: 2}
  _pointManagerSettings: {fileID: 11400000, guid: fe5093ae24e119545a5d75183c38324c, type: 2}
  _mainSoundTrack: {fileID: 11400000, guid: b9e98715485c968418cdabfdead857b6, type: 2}
  _battleSoundTrack: {fileID: 11400000, guid: 083abaf2e0852ff4ba206ec5268dc375, type: 2}
