%YAML 1.1
%TAG !u! tag:unity3d.com,2011:
--- !u!114 &11400000
MonoBehaviour:
  m_ObjectHideFlags: 0
  m_CorrespondingSourceObject: {fileID: 0}
  m_PrefabInstance: {fileID: 0}
  m_PrefabAsset: {fileID: 0}
  m_GameObject: {fileID: 0}
  m_Enabled: 1
  m_EditorHideFlags: 0
  m_Script: {fileID: 11500000, guid: f02f0648a5c04aa891983df1d50a8559, type: 3}
  m_Name: Create Core Managers Launch Task
  m_EditorClassIdentifier: 
  _worldMarkPrefabsData: {fileID: 11400000, guid: 5fab99f4213974748945b758e81ad10c, type: 2}
  _pointManagerSettings: {fileID: 11400000, guid: fe5093ae24e119545a5d75183c38324c, type: 2}
