%YAML 1.1
%TAG !u! tag:unity3d.com,2011:
--- !u!114 &11400000
MonoBehaviour:
  m_ObjectHideFlags: 0
  m_CorrespondingSourceObject: {fileID: 0}
  m_PrefabInstance: {fileID: 0}
  m_PrefabAsset: {fileID: 0}
  m_GameObject: {fileID: 0}
  m_Enabled: 1
  m_EditorHideFlags: 0
  m_Script: {fileID: 11500000, guid: 79df5f8b14294057b8647ae81d7cae7f, type: 3}
  m_Name: Create Cheats Launch Task
  m_EditorClassIdentifier: 
  _cheatsPrefab: {fileID: 1935776608897786709, guid: ab1346ce78f68a148928c34264d1d86b, type: 3}
