%YAML 1.1
%TAG !u! tag:unity3d.com,2011:
--- !u!114 &11400000
MonoBehaviour:
  m_ObjectHideFlags: 0
  m_CorrespondingSourceObject: {fileID: 0}
  m_PrefabInstance: {fileID: 0}
  m_PrefabAsset: {fileID: 0}
  m_GameObject: {fileID: 0}
  m_Enabled: 1
  m_EditorHideFlags: 0
  m_Script: {fileID: 11500000, guid: 2540f93253b74e1eb5c5d6120adbe27d, type: 3}
  m_Name: Quality Creature Data _Template 5_Epic
  m_EditorClassIdentifier: 
  _unitData: {fileID: 11400000, guid: 000137849e07b7e44b5dd24231549e06, type: 2}
  _qualityType: {fileID: 11400000, guid: 64b250d5ba2b9cc44ac8b6ddd8aa306a, type: 2}
  _icon: {fileID: 21300000, guid: e4ba238b96aa8b94b86567c0e74b1272, type: 3}
  _creatureControllerPrefab: {fileID: 7113529605909983650, guid: 09cfb6cd438d13e4a8980d150a71133b, type: 3}
  _preview: {fileID: 117150395161187363, guid: bec986bb8d064c84b9f9401668eef940, type: 3}
