%YAML 1.1
%TAG !u! tag:unity3d.com,2011:
--- !u!114 &11400000
MonoBehaviour:
  m_ObjectHideFlags: 0
  m_CorrespondingSourceObject: {fileID: 0}
  m_PrefabInstance: {fileID: 0}
  m_PrefabAsset: {fileID: 0}
  m_GameObject: {fileID: 0}
  m_Enabled: 1
  m_EditorHideFlags: 0
  m_Script: {fileID: 11500000, guid: 2540f93253b74e1eb5c5d6120adbe27d, type: 3}
  m_Name: Quality Creature Data _Template 1_Common
  m_EditorClassIdentifier: 
  _unitData: {fileID: 11400000, guid: 46da49237291a9b409cd80cd0818d213, type: 2}
  _qualityType: {fileID: 11400000, guid: 0287f32be87c95146b6eae7903e8385e, type: 2}
  _icon: {fileID: 21300000, guid: 9880648d3f1c1cc43a9a4ea943678cd5, type: 3}
  _creatureControllerPrefab: {fileID: 3294748711476652761, guid: 881212f4d4870f74695c3f1006e64efd, type: 3}
  _preview: {fileID: 117150395161187363, guid: d51a7d3396b416b47bf1306a817d495b, type: 3}
