%YAML 1.1
%TAG !u! tag:unity3d.com,2011:
--- !u!114 &11400000
MonoBehaviour:
  m_ObjectHideFlags: 0
  m_CorrespondingSourceObject: {fileID: 0}
  m_PrefabInstance: {fileID: 0}
  m_PrefabAsset: {fileID: 0}
  m_GameObject: {fileID: 0}
  m_Enabled: 1
  m_EditorHideFlags: 0
  m_Script: {fileID: 11500000, guid: 36d621786e1c43dca6a6b74adf3f10f9, type: 3}
  m_Name: Background Main Color Data
  m_EditorClassIdentifier: 
  _color: {r: 0.10980392, g: 0.1882353, b: 0.27058825, a: 1}
