%YAML 1.1
%TAG !u! tag:unity3d.com,2011:
--- !u!1001 &2275639393549903846
PrefabInstance:
  m_ObjectHideFlags: 0
  serializedVersion: 2
  m_Modification:
    serializedVersion: 3
    m_TransformParent: {fileID: 0}
    m_Modifications:
    - target: {fileID: 845590538845661160, guid: dc8ccd6b6ad11bf44819a6fba68d9dca, type: 3}
      propertyPath: m_Sprite
      value: 
      objectReference: {fileID: 21300000, guid: 72ca929249aee80409fe22278ab12a3b, type: 3}
    - target: {fileID: 4309984925099995313, guid: dc8ccd6b6ad11bf44819a6fba68d9dca, type: 3}
      propertyPath: m_Pivot.x
      value: 0.5
      objectReference: {fileID: 0}
    - target: {fileID: 4309984925099995313, guid: dc8ccd6b6ad11bf44819a6fba68d9dca, type: 3}
      propertyPath: m_Pivot.y
      value: 0.5
      objectReference: {fileID: 0}
    - target: {fileID: 4309984925099995313, guid: dc8ccd6b6ad11bf44819a6fba68d9dca, type: 3}
      propertyPath: m_AnchorMax.x
      value: 0
      objectReference: {fileID: 0}
    - target: {fileID: 4309984925099995313, guid: dc8ccd6b6ad11bf44819a6fba68d9dca, type: 3}
      propertyPath: m_AnchorMax.y
      value: 0
      objectReference: {fileID: 0}
    - target: {fileID: 4309984925099995313, guid: dc8ccd6b6ad11bf44819a6fba68d9dca, type: 3}
      propertyPath: m_AnchorMin.x
      value: 0
      objectReference: {fileID: 0}
    - target: {fileID: 4309984925099995313, guid: dc8ccd6b6ad11bf44819a6fba68d9dca, type: 3}
      propertyPath: m_AnchorMin.y
      value: 0
      objectReference: {fileID: 0}
    - target: {fileID: 4309984925099995313, guid: dc8ccd6b6ad11bf44819a6fba68d9dca, type: 3}
      propertyPath: m_LocalPosition.x
      value: 0
      objectReference: {fileID: 0}
    - target: {fileID: 4309984925099995313, guid: dc8ccd6b6ad11bf44819a6fba68d9dca, type: 3}
      propertyPath: m_LocalPosition.y
      value: 0
      objectReference: {fileID: 0}
    - target: {fileID: 4309984925099995313, guid: dc8ccd6b6ad11bf44819a6fba68d9dca, type: 3}
      propertyPath: m_LocalPosition.z
      value: 0
      objectReference: {fileID: 0}
    - target: {fileID: 4309984925099995313, guid: dc8ccd6b6ad11bf44819a6fba68d9dca, type: 3}
      propertyPath: m_LocalRotation.w
      value: 1
      objectReference: {fileID: 0}
    - target: {fileID: 4309984925099995313, guid: dc8ccd6b6ad11bf44819a6fba68d9dca, type: 3}
      propertyPath: m_LocalRotation.x
      value: -0
      objectReference: {fileID: 0}
    - target: {fileID: 4309984925099995313, guid: dc8ccd6b6ad11bf44819a6fba68d9dca, type: 3}
      propertyPath: m_LocalRotation.y
      value: -0
      objectReference: {fileID: 0}
    - target: {fileID: 4309984925099995313, guid: dc8ccd6b6ad11bf44819a6fba68d9dca, type: 3}
      propertyPath: m_LocalRotation.z
      value: -0
      objectReference: {fileID: 0}
    - target: {fileID: 4309984925099995313, guid: dc8ccd6b6ad11bf44819a6fba68d9dca, type: 3}
      propertyPath: m_AnchoredPosition.x
      value: 0
      objectReference: {fileID: 0}
    - target: {fileID: 4309984925099995313, guid: dc8ccd6b6ad11bf44819a6fba68d9dca, type: 3}
      propertyPath: m_AnchoredPosition.y
      value: 0
      objectReference: {fileID: 0}
    - target: {fileID: 4309984925099995313, guid: dc8ccd6b6ad11bf44819a6fba68d9dca, type: 3}
      propertyPath: m_LocalEulerAnglesHint.x
      value: 0
      objectReference: {fileID: 0}
    - target: {fileID: 4309984925099995313, guid: dc8ccd6b6ad11bf44819a6fba68d9dca, type: 3}
      propertyPath: m_LocalEulerAnglesHint.y
      value: 0
      objectReference: {fileID: 0}
    - target: {fileID: 4309984925099995313, guid: dc8ccd6b6ad11bf44819a6fba68d9dca, type: 3}
      propertyPath: m_LocalEulerAnglesHint.z
      value: 0
      objectReference: {fileID: 0}
    - target: {fileID: 7957674870659290787, guid: dc8ccd6b6ad11bf44819a6fba68d9dca, type: 3}
      propertyPath: m_Name
      value: Colored Button Blue Variant
      objectReference: {fileID: 0}
    m_RemovedComponents: []
    m_RemovedGameObjects: []
    m_AddedGameObjects: []
    m_AddedComponents: []
  m_SourcePrefab: {fileID: 100100000, guid: dc8ccd6b6ad11bf44819a6fba68d9dca, type: 3}
