%YAML 1.1
%TAG !u! tag:unity3d.com,2011:
--- !u!114 &11400000
MonoBehaviour:
  m_ObjectHideFlags: 0
  m_CorrespondingSourceObject: {fileID: 0}
  m_PrefabInstance: {fileID: 0}
  m_PrefabAsset: {fileID: 0}
  m_GameObject: {fileID: 0}
  m_Enabled: 1
  m_EditorHideFlags: 0
  m_Script: {fileID: 11500000, guid: 2540f93253b74e1eb5c5d6120adbe27d, type: 3}
  m_Name: Quality Creature Data _Template 5_Epic
  m_EditorClassIdentifier: 
  _unitData: {fileID: 11400000, guid: 77134ecedef51ab4092709de713789e2, type: 2}
  _qualityType: {fileID: 11400000, guid: 64b250d5ba2b9cc44ac8b6ddd8aa306a, type: 2}
  _icon: {fileID: 21300000, guid: 1cd5b0841481a7744a784353f95a85a9, type: 3}
  _creatureControllerPrefab: {fileID: 8988325847433042886, guid: 8c7d54853ca44744589a7bc8656d5df3, type: 3}
  _preview: {fileID: 117150395161187363, guid: b4f6df04273dfca4e9fb12314709fcc6, type: 3}
