%YAML 1.1
%TAG !u! tag:unity3d.com,2011:
--- !u!114 &11400000
MonoBehaviour:
  m_ObjectHideFlags: 0
  m_CorrespondingSourceObject: {fileID: 0}
  m_PrefabInstance: {fileID: 0}
  m_PrefabAsset: {fileID: 0}
  m_GameObject: {fileID: 0}
  m_Enabled: 1
  m_EditorHideFlags: 0
  m_Script: {fileID: 11500000, guid: 2540f93253b74e1eb5c5d6120adbe27d, type: 3}
  m_Name: Quality Creature Data _Template 2_Good
  m_EditorClassIdentifier: 
  _unitData: {fileID: 11400000, guid: a872c89320dd7f64ebf7b532ee231472, type: 2}
  _qualityType: {fileID: 11400000, guid: c601295504566dd41a5be60d9dbac4fe, type: 2}
  _icon: {fileID: 21300000, guid: 39be83e903f5a0c45b0b2af22f30f619, type: 3}
  _creatureControllerPrefab: {fileID: 4962028693776450299, guid: f0be735b4b4cc104b9b1f88849c06f9e, type: 3}
  _preview: {fileID: 117150395161187363, guid: e929733112a256249a575ed7ae32b6d7, type: 3}
