%YAML 1.1
%TAG !u! tag:unity3d.com,2011:
--- !u!114 &11400000
MonoBehaviour:
  m_ObjectHideFlags: 0
  m_CorrespondingSourceObject: {fileID: 0}
  m_PrefabInstance: {fileID: 0}
  m_PrefabAsset: {fileID: 0}
  m_GameObject: {fileID: 0}
  m_Enabled: 1
  m_EditorHideFlags: 0
  m_Script: {fileID: 11500000, guid: 2540f93253b74e1eb5c5d6120adbe27d, type: 3}
  m_Name: Quality Creature Data _Template 4_Rare
  m_EditorClassIdentifier: 
  _unitData: {fileID: 11400000, guid: d5e5c6a6221f29646a9fae9fd77b7a41, type: 2}
  _qualityType: {fileID: 11400000, guid: b73bb9707da56ae43ab422b3d11142dc, type: 2}
  _icon: {fileID: 21300000, guid: 22e77c0c5e74ee9439543351d614bb85, type: 3}
  _creatureControllerPrefab: {fileID: 3591509080340404626, guid: 1bbd50fe924c87940812f36db74d16ed, type: 3}
  _preview: {fileID: 3393446993597103771, guid: 0f292f531def56943822f89b03a73aca, type: 3}
