%YAML 1.1
%TAG !u! tag:unity3d.com,2011:
--- !u!114 &11400000
MonoBehaviour:
  m_ObjectHideFlags: 0
  m_CorrespondingSourceObject: {fileID: 0}
  m_PrefabInstance: {fileID: 0}
  m_PrefabAsset: {fileID: 0}
  m_GameObject: {fileID: 0}
  m_Enabled: 1
  m_EditorHideFlags: 0
  m_Script: {fileID: 11500000, guid: 2540f93253b74e1eb5c5d6120adbe27d, type: 3}
  m_Name: Quality Creature Data _Template 6_Legendary
  m_EditorClassIdentifier: 
  _unitData: {fileID: 11400000, guid: ed2b76aa5c33da64a86c86f5dd7946c2, type: 2}
  _qualityType: {fileID: 11400000, guid: 68082c398e041ca4198cf8513bc77cf9, type: 2}
  _icon: {fileID: 21300000, guid: 3b8778baa21067a419adac0b1caad3c4, type: 3}
  _creatureControllerPrefab: {fileID: 7528460483762188806, guid: 48d2a27743bcf07418b8fa36be23ff4e, type: 3}
  _preview: {fileID: 117150395161187363, guid: dc6b020691b43d7488cb75be6d797a89, type: 3}
