%YAML 1.1
%TAG !u! tag:unity3d.com,2011:
--- !u!114 &11400000
MonoBehaviour:
  m_ObjectHideFlags: 0
  m_CorrespondingSourceObject: {fileID: 0}
  m_PrefabInstance: {fileID: 0}
  m_PrefabAsset: {fileID: 0}
  m_GameObject: {fileID: 0}
  m_Enabled: 1
  m_EditorHideFlags: 0
  m_Script: {fileID: 11500000, guid: 25e792b1b1364121a6d738c4c91ded53, type: 3}
  m_Name: Stage Data Dead lands
  m_EditorClassIdentifier: 
  _name: Dead lands
  _previewSprite: {fileID: 21300000, guid: 378d94438ed80564eae845cdacef39e5, type: 3}
  _levels:
  - {fileID: 11400000, guid: 7b782bde9f0e0364cbfb3d4aa1741cbf, type: 2}
  - {fileID: 11400000, guid: aa5ceb7a1144256489dca873579a2cbf, type: 2}
  - {fileID: 11400000, guid: 7abb7e0f3b6b0de44be9150fca1f987c, type: 2}
  - {fileID: 11400000, guid: 830bb43c4c403034cbe90e25a3a8e9fa, type: 2}
  - {fileID: 11400000, guid: d0414572cc022df4abff17a31c551011, type: 2}
  - {fileID: 11400000, guid: 3b48f454536d14b4c893dd93a609174c, type: 2}
  - {fileID: 11400000, guid: 058865092d8939f4ebc33bb57dddf02b, type: 2}
  - {fileID: 11400000, guid: 1da90f06987f8e140a34625f3b6c4873, type: 2}
  - {fileID: 11400000, guid: 65fbe5afa14c6744dbacc0a98d77c371, type: 2}
  - {fileID: 11400000, guid: fd81b224529297a42b2f0cdfe13294a5, type: 2}
  _previousStage: {fileID: 11400000, guid: 91bad3edeb5edf64cab75f6c1073c50b, type: 2}
  _stageMap: {fileID: -7067731913673489698, guid: d1d108491896b3a499810cd4dd2dd951, type: 3}
