%YAML 1.1
%TAG !u! tag:unity3d.com,2011:
--- !u!78 &1
TagManager:
  serializedVersion: 2
  tags: []
  layers:
  - Default
  - TransparentFX
  - Ignore Raycast
  - 
  - Water
  - UI
  - Map
  - Environment
  - Builds
  - Enemy
  - Charge
  - Tower Radius
  - Creature Preview
  - VFX
  - 
  - 
  - 
  - 
  - 
  - 
  - 
  - 
  - 
  - 
  - 
  - 
  - 
  - 
  - 
  - 
  - 
  - 
  m_SortingLayers:
  - name: Default
    uniqueID: 0
    locked: 0
  - name: Map
    uniqueID: 3835003323
    locked: 0
  - name: Builds
    uniqueID: 2093712429
    locked: 0
  - name: Enemies
    uniqueID: 2795034449
    locked: 0
  - name: Charges
    uniqueID: 1706656627
    locked: 0
  - name: Build Items
    uniqueID: 3852813473
    locked: 0
  - name: '[UI] Game'
    uniqueID: 1895451713
    locked: 0
  - name: '[UI] Pages'
    uniqueID: 2406847787
    locked: 0
  - name: '[UI] Popups'
    uniqueID: 586642069
    locked: 0
  - name: '[UI] Messageboxes'
    uniqueID: 4230907281
    locked: 0
