%YAML 1.1
%TAG !u! tag:unity3d.com,2011:
--- !u!1 &8170088254926586207
GameObject:
  m_ObjectHideFlags: 0
  m_CorrespondingSourceObject: {fileID: 0}
  m_PrefabInstance: {fileID: 0}
  m_PrefabAsset: {fileID: 0}
  serializedVersion: 6
  m_Component:
  - component: {fileID: 5432183920624779716}
  - component: {fileID: 9072114538309578898}
  m_Layer: 0
  m_Name: _Tooltip Template
  m_TagString: Untagged
  m_Icon: {fileID: 0}
  m_NavMeshLayer: 0
  m_StaticEditorFlags: 0
  m_IsActive: 1
--- !u!224 &5432183920624779716
RectTransform:
  m_ObjectHideFlags: 0
  m_CorrespondingSourceObject: {fileID: 0}
  m_PrefabInstance: {fileID: 0}
  m_PrefabAsset: {fileID: 0}
  m_GameObject: {fileID: 8170088254926586207}
  m_LocalRotation: {x: 0, y: 0, z: 0, w: 1}
  m_LocalPosition: {x: 0, y: 0, z: 0}
  m_LocalScale: {x: 1, y: 1, z: 1}
  m_ConstrainProportionsScale: 0
  m_Children:
  - {fileID: 7237670838054564859}
  m_Father: {fileID: 0}
  m_LocalEulerAnglesHint: {x: 0, y: 0, z: 0}
  m_AnchorMin: {x: 0, y: 0}
  m_AnchorMax: {x: 1, y: 1}
  m_AnchoredPosition: {x: 0, y: 0}
  m_SizeDelta: {x: 0, y: 0}
  m_Pivot: {x: 0.5, y: 0.5}
--- !u!114 &9072114538309578898
MonoBehaviour:
  m_ObjectHideFlags: 0
  m_CorrespondingSourceObject: {fileID: 0}
  m_PrefabInstance: {fileID: 0}
  m_PrefabAsset: {fileID: 0}
  m_GameObject: {fileID: 8170088254926586207}
  m_Enabled: 1
  m_EditorHideFlags: 0
  m_Script: {fileID: 11500000, guid: e4da5828387d48a78b2940c07e8c9d0e, type: 3}
  m_Name: 
  m_EditorClassIdentifier: 
  _abilityName: {fileID: 0}
  _typeName: {fileID: 0}
  _abilityDesctiption: {fileID: 0}
  _abilitySlotView: {fileID: 0}
  _advantageType: {fileID: 0}
  _disadvantageType: {fileID: 0}
  _arrowOffset: 0
--- !u!1001 &5849412793273175538
PrefabInstance:
  m_ObjectHideFlags: 0
  serializedVersion: 2
  m_Modification:
    serializedVersion: 3
    m_TransformParent: {fileID: 5432183920624779716}
    m_Modifications:
    - target: {fileID: 2384395442211999697, guid: c656be220f32c4f4e93e3995b0954ff2, type: 3}
      propertyPath: m_AnchoredPosition.x
      value: 0
      objectReference: {fileID: 0}
    - target: {fileID: 2384395442211999697, guid: c656be220f32c4f4e93e3995b0954ff2, type: 3}
      propertyPath: m_AnchoredPosition.y
      value: 0
      objectReference: {fileID: 0}
    - target: {fileID: 3004886035062907559, guid: c656be220f32c4f4e93e3995b0954ff2, type: 3}
      propertyPath: m_Pivot.y
      value: 0
      objectReference: {fileID: 0}
    - target: {fileID: 3004886035062907559, guid: c656be220f32c4f4e93e3995b0954ff2, type: 3}
      propertyPath: m_AnchorMax.y
      value: 0
      objectReference: {fileID: 0}
    - target: {fileID: 3004886035062907559, guid: c656be220f32c4f4e93e3995b0954ff2, type: 3}
      propertyPath: m_AnchorMin.y
      value: 0
      objectReference: {fileID: 0}
    - target: {fileID: 3004886035062907559, guid: c656be220f32c4f4e93e3995b0954ff2, type: 3}
      propertyPath: m_AnchoredPosition.x
      value: 0
      objectReference: {fileID: 0}
    - target: {fileID: 3004886035062907559, guid: c656be220f32c4f4e93e3995b0954ff2, type: 3}
      propertyPath: m_AnchoredPosition.y
      value: -14.999939
      objectReference: {fileID: 0}
    - target: {fileID: 3844973154432613897, guid: c656be220f32c4f4e93e3995b0954ff2, type: 3}
      propertyPath: m_Pivot.x
      value: 0.5
      objectReference: {fileID: 0}
    - target: {fileID: 3844973154432613897, guid: c656be220f32c4f4e93e3995b0954ff2, type: 3}
      propertyPath: m_Pivot.y
      value: 0.5
      objectReference: {fileID: 0}
    - target: {fileID: 3844973154432613897, guid: c656be220f32c4f4e93e3995b0954ff2, type: 3}
      propertyPath: m_AnchorMax.x
      value: 0.5
      objectReference: {fileID: 0}
    - target: {fileID: 3844973154432613897, guid: c656be220f32c4f4e93e3995b0954ff2, type: 3}
      propertyPath: m_AnchorMax.y
      value: 0.5
      objectReference: {fileID: 0}
    - target: {fileID: 3844973154432613897, guid: c656be220f32c4f4e93e3995b0954ff2, type: 3}
      propertyPath: m_AnchorMin.x
      value: 0.5
      objectReference: {fileID: 0}
    - target: {fileID: 3844973154432613897, guid: c656be220f32c4f4e93e3995b0954ff2, type: 3}
      propertyPath: m_AnchorMin.y
      value: 0.5
      objectReference: {fileID: 0}
    - target: {fileID: 3844973154432613897, guid: c656be220f32c4f4e93e3995b0954ff2, type: 3}
      propertyPath: m_SizeDelta.x
      value: 500
      objectReference: {fileID: 0}
    - target: {fileID: 3844973154432613897, guid: c656be220f32c4f4e93e3995b0954ff2, type: 3}
      propertyPath: m_SizeDelta.y
      value: 500
      objectReference: {fileID: 0}
    - target: {fileID: 3844973154432613897, guid: c656be220f32c4f4e93e3995b0954ff2, type: 3}
      propertyPath: m_LocalPosition.x
      value: 0
      objectReference: {fileID: 0}
    - target: {fileID: 3844973154432613897, guid: c656be220f32c4f4e93e3995b0954ff2, type: 3}
      propertyPath: m_LocalPosition.y
      value: 0
      objectReference: {fileID: 0}
    - target: {fileID: 3844973154432613897, guid: c656be220f32c4f4e93e3995b0954ff2, type: 3}
      propertyPath: m_LocalPosition.z
      value: 0
      objectReference: {fileID: 0}
    - target: {fileID: 3844973154432613897, guid: c656be220f32c4f4e93e3995b0954ff2, type: 3}
      propertyPath: m_LocalRotation.w
      value: 1
      objectReference: {fileID: 0}
    - target: {fileID: 3844973154432613897, guid: c656be220f32c4f4e93e3995b0954ff2, type: 3}
      propertyPath: m_LocalRotation.x
      value: 0
      objectReference: {fileID: 0}
    - target: {fileID: 3844973154432613897, guid: c656be220f32c4f4e93e3995b0954ff2, type: 3}
      propertyPath: m_LocalRotation.y
      value: 0
      objectReference: {fileID: 0}
    - target: {fileID: 3844973154432613897, guid: c656be220f32c4f4e93e3995b0954ff2, type: 3}
      propertyPath: m_LocalRotation.z
      value: 0
      objectReference: {fileID: 0}
    - target: {fileID: 3844973154432613897, guid: c656be220f32c4f4e93e3995b0954ff2, type: 3}
      propertyPath: m_AnchoredPosition.x
      value: 0
      objectReference: {fileID: 0}
    - target: {fileID: 3844973154432613897, guid: c656be220f32c4f4e93e3995b0954ff2, type: 3}
      propertyPath: m_AnchoredPosition.y
      value: 0
      objectReference: {fileID: 0}
    - target: {fileID: 3844973154432613897, guid: c656be220f32c4f4e93e3995b0954ff2, type: 3}
      propertyPath: m_LocalEulerAnglesHint.x
      value: 0
      objectReference: {fileID: 0}
    - target: {fileID: 3844973154432613897, guid: c656be220f32c4f4e93e3995b0954ff2, type: 3}
      propertyPath: m_LocalEulerAnglesHint.y
      value: 0
      objectReference: {fileID: 0}
    - target: {fileID: 3844973154432613897, guid: c656be220f32c4f4e93e3995b0954ff2, type: 3}
      propertyPath: m_LocalEulerAnglesHint.z
      value: 0
      objectReference: {fileID: 0}
    - target: {fileID: 4422324598195992149, guid: c656be220f32c4f4e93e3995b0954ff2, type: 3}
      propertyPath: m_Color.b
      value: 0.1764706
      objectReference: {fileID: 0}
    - target: {fileID: 4422324598195992149, guid: c656be220f32c4f4e93e3995b0954ff2, type: 3}
      propertyPath: m_Color.g
      value: 0.10980393
      objectReference: {fileID: 0}
    - target: {fileID: 4422324598195992149, guid: c656be220f32c4f4e93e3995b0954ff2, type: 3}
      propertyPath: m_Color.r
      value: 0.04705883
      objectReference: {fileID: 0}
    - target: {fileID: 4935574841505978975, guid: c656be220f32c4f4e93e3995b0954ff2, type: 3}
      propertyPath: m_AnchoredPosition.x
      value: 0
      objectReference: {fileID: 0}
    - target: {fileID: 4935574841505978975, guid: c656be220f32c4f4e93e3995b0954ff2, type: 3}
      propertyPath: m_AnchoredPosition.y
      value: 0
      objectReference: {fileID: 0}
    - target: {fileID: 7041840358950692431, guid: c656be220f32c4f4e93e3995b0954ff2, type: 3}
      propertyPath: m_IsActive
      value: 1
      objectReference: {fileID: 0}
    - target: {fileID: 8107585976515382599, guid: c656be220f32c4f4e93e3995b0954ff2, type: 3}
      propertyPath: m_Name
      value: Content
      objectReference: {fileID: 0}
    - target: {fileID: 8107585976515382599, guid: c656be220f32c4f4e93e3995b0954ff2, type: 3}
      propertyPath: m_IsActive
      value: 1
      objectReference: {fileID: 0}
    m_RemovedComponents: []
    m_RemovedGameObjects: []
    m_AddedGameObjects: []
    m_AddedComponents: []
  m_SourcePrefab: {fileID: 100100000, guid: c656be220f32c4f4e93e3995b0954ff2, type: 3}
--- !u!224 &7237670838054564859 stripped
RectTransform:
  m_CorrespondingSourceObject: {fileID: 3844973154432613897, guid: c656be220f32c4f4e93e3995b0954ff2, type: 3}
  m_PrefabInstance: {fileID: 5849412793273175538}
  m_PrefabAsset: {fileID: 0}
