%YAML 1.1
%TAG !u! tag:unity3d.com,2011:
--- !u!114 &11400000
MonoBehaviour:
  m_ObjectHideFlags: 0
  m_CorrespondingSourceObject: {fileID: 0}
  m_PrefabInstance: {fileID: 0}
  m_PrefabAsset: {fileID: 0}
  m_GameObject: {fileID: 0}
  m_Enabled: 1
  m_EditorHideFlags: 0
  m_Script: {fileID: 11500000, guid: f2c9cf51b78c4cde9a73d263e69b39dc, type: 3}
  m_Name: Popups Container
  m_EditorClassIdentifier: 
  _data:
  - {fileID: 6641390250294851083, guid: f4b8962566f952f489821382c096e014, type: 3}
  - {fileID: 104411920410031674, guid: e36bcaec1c1462f4882e1cce56daeead, type: 3}
  - {fileID: 3981141876161050108, guid: 5e1eab6348c70e14c9c709c1db9df644, type: 3}
  - {fileID: 7156694458779335946, guid: 915fc9aba3b0af04182f76daa4106efc, type: 3}
  - {fileID: 2460177333314531116, guid: 6544aaccdc0d79d458d5cb4749e9c3f8, type: 3}
  - {fileID: 1982707886034698098, guid: dbdfe42122c2cc54aa00a455f6993baa, type: 3}
  - {fileID: 4836787986734444068, guid: e436fb0d6f3b78348a806fe17dbebda2, type: 3}
  - {fileID: 6560609842872666196, guid: 1581841940d7d8c49ad90d2eaf403626, type: 3}
  - {fileID: 991711079077678061, guid: 5d87f692bcdbbdf4cad0a82a2f2c03a6, type: 3}
  - {fileID: 2285139322234519073, guid: eeeea3995349a6b48bdad7b654dd949f, type: 3}
  - {fileID: 2099126360985462508, guid: 665a4b6c482d8a2498ea8d83022b378c, type: 3}
  - {fileID: 8903805736856209597, guid: 32069cd0b6ef1d24494a70d80612f9b4, type: 3}
