%YAML 1.1
%TAG !u! tag:unity3d.com,2011:
--- !u!1001 &2938072866968705326
PrefabInstance:
  m_ObjectHideFlags: 0
  serializedVersion: 2
  m_Modification:
    serializedVersion: 3
    m_TransformParent: {fileID: 0}
    m_Modifications:
    - target: {fileID: 427459353143202328, guid: 7675404c769d1dc4396c7225ce336cc7, type: 3}
      propertyPath: m_Color.b
      value: 0.068574235
      objectReference: {fileID: 0}
    - target: {fileID: 427459353143202328, guid: 7675404c769d1dc4396c7225ce336cc7, type: 3}
      propertyPath: m_Color.g
      value: 0.22878535
      objectReference: {fileID: 0}
    - target: {fileID: 427459353143202328, guid: 7675404c769d1dc4396c7225ce336cc7, type: 3}
      propertyPath: m_Color.r
      value: 0.6320754
      objectReference: {fileID: 0}
    - target: {fileID: 427459353143202328, guid: 7675404c769d1dc4396c7225ce336cc7, type: 3}
      propertyPath: m_SortingOrder
      value: 3
      objectReference: {fileID: 0}
    - target: {fileID: 2796702740690898985, guid: 7675404c769d1dc4396c7225ce336cc7, type: 3}
      propertyPath: _towerData
      value: 
      objectReference: {fileID: 11400000, guid: 084a4727d2a4f5648868bdbd42490507, type: 2}
    - target: {fileID: 3217299930100460430, guid: 7675404c769d1dc4396c7225ce336cc7, type: 3}
      propertyPath: _icon
      value: 
      objectReference: {fileID: -132149979072316164, guid: 7f88c2c1b98f97644aadcbb540356c2a, type: 3}
    - target: {fileID: 3217299930100460430, guid: 7675404c769d1dc4396c7225ce336cc7, type: 3}
      propertyPath: _type
      value: 
      objectReference: {fileID: 11400000, guid: 4ff64157598d68a468a3f14136be0d27, type: 2}
    - target: {fileID: 3217299930100460430, guid: 7675404c769d1dc4396c7225ce336cc7, type: 3}
      propertyPath: _chargePrefab
      value: 
      objectReference: {fileID: 8159588809476257133, guid: 2d19d5afb25d7a0428ec3dcc9816b5e8, type: 3}
    - target: {fileID: 3217299930100460430, guid: 7675404c769d1dc4396c7225ce336cc7, type: 3}
      propertyPath: _abilitySlots.Array.size
      value: 3
      objectReference: {fileID: 0}
    - target: {fileID: 3217299930100460430, guid: 7675404c769d1dc4396c7225ce336cc7, type: 3}
      propertyPath: _abilitySlots.Array.data[0]._firstAbility
      value: 
      objectReference: {fileID: 11400000, guid: 58933b1f9f3d39549916304e70ea7de1, type: 2}
    - target: {fileID: 3217299930100460430, guid: 7675404c769d1dc4396c7225ce336cc7, type: 3}
      propertyPath: _abilitySlots.Array.data[1]._firstAbility
      value: 
      objectReference: {fileID: 11400000, guid: 0114c8ec6293e2e449aa80a69248977e, type: 2}
    - target: {fileID: 3217299930100460430, guid: 7675404c769d1dc4396c7225ce336cc7, type: 3}
      propertyPath: _abilitySlots.Array.data[2]._firstAbility
      value: 
      objectReference: {fileID: 11400000, guid: 58933b1f9f3d39549916304e70ea7de1, type: 2}
    - target: {fileID: 3217299930100460430, guid: 7675404c769d1dc4396c7225ce336cc7, type: 3}
      propertyPath: _abilitySlots.Array.data[0]._secondAbility
      value: 
      objectReference: {fileID: 11400000, guid: 58933b1f9f3d39549916304e70ea7de1, type: 2}
    - target: {fileID: 3217299930100460430, guid: 7675404c769d1dc4396c7225ce336cc7, type: 3}
      propertyPath: _abilitySlots.Array.data[1]._secondAbility
      value: 
      objectReference: {fileID: 11400000, guid: 72583271edcc5b54289548116a54ce96, type: 2}
    - target: {fileID: 3217299930100460430, guid: 7675404c769d1dc4396c7225ce336cc7, type: 3}
      propertyPath: _abilitySlots.Array.data[2]._secondAbility
      value: 
      objectReference: {fileID: 11400000, guid: 0114c8ec6293e2e449aa80a69248977e, type: 2}
    - target: {fileID: 3217299930100460430, guid: 7675404c769d1dc4396c7225ce336cc7, type: 3}
      propertyPath: _abilities._activeAbilitySlot._firstAbility
      value: 
      objectReference: {fileID: 11400000, guid: 121e1c61f89253a459b50668f0b2b96c, type: 2}
    - target: {fileID: 3217299930100460430, guid: 7675404c769d1dc4396c7225ce336cc7, type: 3}
      propertyPath: _abilities._weaponAbilitySlot._firstAbility
      value: 
      objectReference: {fileID: 11400000, guid: bc109821ab961424f8ac7d10ac3c1f81, type: 2}
    - target: {fileID: 3217299930100460430, guid: 7675404c769d1dc4396c7225ce336cc7, type: 3}
      propertyPath: _abilities._activeAbilitySlot._secondAbility
      value: 
      objectReference: {fileID: 11400000, guid: 7cbfd53fd44d2a2499c6eaacf491c418, type: 2}
    - target: {fileID: 3217299930100460430, guid: 7675404c769d1dc4396c7225ce336cc7, type: 3}
      propertyPath: _abilities._passiveAbilitySlot._firstAbility
      value: 
      objectReference: {fileID: 11400000, guid: ee32ecd9bcf4f8242868346b2b7c1cb2, type: 2}
    - target: {fileID: 3217299930100460430, guid: 7675404c769d1dc4396c7225ce336cc7, type: 3}
      propertyPath: _abilities._weaponAbilitySlot._secondAbility
      value: 
      objectReference: {fileID: 11400000, guid: 3e96360e090232442b23a78a7716edd7, type: 2}
    - target: {fileID: 3217299930100460430, guid: 7675404c769d1dc4396c7225ce336cc7, type: 3}
      propertyPath: _abilities._passiveAbilitySlot._secondAbility
      value: 
      objectReference: {fileID: 11400000, guid: 5a2878e3f6ba9974e815274305338171, type: 2}
    - target: {fileID: 3631741378472460460, guid: 7675404c769d1dc4396c7225ce336cc7, type: 3}
      propertyPath: m_Color.b
      value: 0.129539
      objectReference: {fileID: 0}
    - target: {fileID: 3631741378472460460, guid: 7675404c769d1dc4396c7225ce336cc7, type: 3}
      propertyPath: m_Color.g
      value: 0.19960116
      objectReference: {fileID: 0}
    - target: {fileID: 3631741378472460460, guid: 7675404c769d1dc4396c7225ce336cc7, type: 3}
      propertyPath: m_Color.r
      value: 0.38679248
      objectReference: {fileID: 0}
    - target: {fileID: 3631741378472460460, guid: 7675404c769d1dc4396c7225ce336cc7, type: 3}
      propertyPath: m_SortingOrder
      value: 4
      objectReference: {fileID: 0}
    - target: {fileID: 4361365957126993394, guid: 7675404c769d1dc4396c7225ce336cc7, type: 3}
      propertyPath: m_LocalPosition.x
      value: 0
      objectReference: {fileID: 0}
    - target: {fileID: 4361365957126993394, guid: 7675404c769d1dc4396c7225ce336cc7, type: 3}
      propertyPath: m_LocalPosition.y
      value: 0
      objectReference: {fileID: 0}
    - target: {fileID: 4361365957126993394, guid: 7675404c769d1dc4396c7225ce336cc7, type: 3}
      propertyPath: m_LocalPosition.z
      value: 0
      objectReference: {fileID: 0}
    - target: {fileID: 4361365957126993394, guid: 7675404c769d1dc4396c7225ce336cc7, type: 3}
      propertyPath: m_LocalRotation.w
      value: 1
      objectReference: {fileID: 0}
    - target: {fileID: 4361365957126993394, guid: 7675404c769d1dc4396c7225ce336cc7, type: 3}
      propertyPath: m_LocalRotation.x
      value: 0
      objectReference: {fileID: 0}
    - target: {fileID: 4361365957126993394, guid: 7675404c769d1dc4396c7225ce336cc7, type: 3}
      propertyPath: m_LocalRotation.y
      value: 0
      objectReference: {fileID: 0}
    - target: {fileID: 4361365957126993394, guid: 7675404c769d1dc4396c7225ce336cc7, type: 3}
      propertyPath: m_LocalRotation.z
      value: 0
      objectReference: {fileID: 0}
    - target: {fileID: 4361365957126993394, guid: 7675404c769d1dc4396c7225ce336cc7, type: 3}
      propertyPath: m_LocalEulerAnglesHint.x
      value: 0
      objectReference: {fileID: 0}
    - target: {fileID: 4361365957126993394, guid: 7675404c769d1dc4396c7225ce336cc7, type: 3}
      propertyPath: m_LocalEulerAnglesHint.y
      value: 0
      objectReference: {fileID: 0}
    - target: {fileID: 4361365957126993394, guid: 7675404c769d1dc4396c7225ce336cc7, type: 3}
      propertyPath: m_LocalEulerAnglesHint.z
      value: 0
      objectReference: {fileID: 0}
    - target: {fileID: 6807718673719426194, guid: 7675404c769d1dc4396c7225ce336cc7, type: 3}
      propertyPath: m_Name
      value: Earth Tower Variant
      objectReference: {fileID: 0}
    - target: {fileID: 6807718673719426194, guid: 7675404c769d1dc4396c7225ce336cc7, type: 3}
      propertyPath: m_IsActive
      value: 1
      objectReference: {fileID: 0}
    - target: {fileID: 7335789481003305890, guid: 7675404c769d1dc4396c7225ce336cc7, type: 3}
      propertyPath: m_Color.b
      value: 0.08940016
      objectReference: {fileID: 0}
    - target: {fileID: 7335789481003305890, guid: 7675404c769d1dc4396c7225ce336cc7, type: 3}
      propertyPath: m_Color.g
      value: 0.20162424
      objectReference: {fileID: 0}
    - target: {fileID: 7335789481003305890, guid: 7675404c769d1dc4396c7225ce336cc7, type: 3}
      propertyPath: m_Color.r
      value: 0.38679248
      objectReference: {fileID: 0}
    - target: {fileID: 7335789481003305890, guid: 7675404c769d1dc4396c7225ce336cc7, type: 3}
      propertyPath: m_SortingOrder
      value: 2
      objectReference: {fileID: 0}
    - target: {fileID: 7778928161608912753, guid: 7675404c769d1dc4396c7225ce336cc7, type: 3}
      propertyPath: m_Color.b
      value: 0.068574235
      objectReference: {fileID: 0}
    - target: {fileID: 7778928161608912753, guid: 7675404c769d1dc4396c7225ce336cc7, type: 3}
      propertyPath: m_Color.g
      value: 0.22878535
      objectReference: {fileID: 0}
    - target: {fileID: 7778928161608912753, guid: 7675404c769d1dc4396c7225ce336cc7, type: 3}
      propertyPath: m_Color.r
      value: 0.6320754
      objectReference: {fileID: 0}
    - target: {fileID: 7778928161608912753, guid: 7675404c769d1dc4396c7225ce336cc7, type: 3}
      propertyPath: m_SortingOrder
      value: 3
      objectReference: {fileID: 0}
    m_RemovedComponents: []
    m_RemovedGameObjects: []
    m_AddedGameObjects: []
    m_AddedComponents: []
  m_SourcePrefab: {fileID: 100100000, guid: 7675404c769d1dc4396c7225ce336cc7, type: 3}
