%YAML 1.1
%TAG !u! tag:unity3d.com,2011:
--- !u!114 &11400000
MonoBehaviour:
  m_ObjectHideFlags: 0
  m_CorrespondingSourceObject: {fileID: 0}
  m_PrefabInstance: {fileID: 0}
  m_PrefabAsset: {fileID: 0}
  m_GameObject: {fileID: 0}
  m_Enabled: 1
  m_EditorHideFlags: 0
  m_Script: {fileID: 11500000, guid: 2540f93253b74e1eb5c5d6120adbe27d, type: 3}
  m_Name: Quality Creature Data _Template 6_Legendary
  m_EditorClassIdentifier: 
  _unitData: {fileID: 11400000, guid: 454ff21fcc0eb2c41a50a020885f4372, type: 2}
  _qualityType: {fileID: 11400000, guid: 68082c398e041ca4198cf8513bc77cf9, type: 2}
  _icon: {fileID: 21300000, guid: c5490bea15cc45044931248debfbca49, type: 3}
  _creatureControllerPrefab: {fileID: 6212159485504349237, guid: 1004cb96254b1e241980fdb78f5ecddf, type: 3}
  _preview: {fileID: 5923401707093281111, guid: ff3197dfbdd49e1478902b7756ef4b18, type: 3}
