%YAML 1.1
%TAG !u! tag:unity3d.com,2011:
--- !u!114 &11400000
MonoBehaviour:
  m_ObjectHideFlags: 0
  m_CorrespondingSourceObject: {fileID: 0}
  m_PrefabInstance: {fileID: 0}
  m_PrefabAsset: {fileID: 0}
  m_GameObject: {fileID: 0}
  m_Enabled: 1
  m_EditorHideFlags: 0
  m_Script: {fileID: 11500000, guid: a79afb3f2a7f4862933abfdf2763b044, type: 3}
  m_Name: Level Data 9
  m_EditorClassIdentifier: 
  _levelInfo:
    _name: Mausoleum of Silence
    _description: 
  _levelWaves:
    _waves:
    - _spawnersOnWave:
      - _waveParts:
        - _enemyDataByQuality: {fileID: 11400000, guid: e40c2683ba26f0e4596360e42c98d9fc, type: 2}
          _count: 1
          _interval: 0
          _startDelay: 0
  _levelMapPrefab: {fileID: 3607666751279850167, guid: d0452320ece2f3f4cbc6417b6446867e, type: 3}
  _baseLevelStats: {fileID: 11400000, guid: 5f52b8016c4f64d458212330f607307c, type: 2}
  _previousLevel: {fileID: 11400000, guid: 4c353eff7d1a4fa409fd1a5026d4f278, type: 2}
