%YAML 1.1
%TAG !u! tag:unity3d.com,2011:
--- !u!114 &11400000
MonoBehaviour:
  m_ObjectHideFlags: 0
  m_CorrespondingSourceObject: {fileID: 0}
  m_PrefabInstance: {fileID: 0}
  m_PrefabAsset: {fileID: 0}
  m_GameObject: {fileID: 0}
  m_Enabled: 1
  m_EditorHideFlags: 0
  m_Script: {fileID: 11500000, guid: 2540f93253b74e1eb5c5d6120adbe27d, type: 3}
  m_Name: Quality Creature Data _Template 6_Legendary
  m_EditorClassIdentifier: 
  _unitData: {fileID: 11400000, guid: 0aae827b1b02c9d4780f85d5ae3ede3c, type: 2}
  _qualityType: {fileID: 11400000, guid: 68082c398e041ca4198cf8513bc77cf9, type: 2}
  _icon: {fileID: 21300000, guid: f0f6dd6bcbbe0e04598457e1cee9597e, type: 3}
  _creatureControllerPrefab: {fileID: 2935276161548360992, guid: 764a7f89b82443c44bd84865c667f2bc, type: 3}
  _preview: {fileID: 117150395161187363, guid: e8cdf896591e1b54691320d947658554, type: 3}
