%YAML 1.1
%TAG !u! tag:unity3d.com,2011:
--- !u!114 &11400000
MonoBehaviour:
  m_ObjectHideFlags: 0
  m_CorrespondingSourceObject: {fileID: 0}
  m_PrefabInstance: {fileID: 0}
  m_PrefabAsset: {fileID: 0}
  m_GameObject: {fileID: 0}
  m_Enabled: 1
  m_EditorHideFlags: 0
  m_Script: {fileID: 11500000, guid: 2540f93253b74e1eb5c5d6120adbe27d, type: 3}
  m_Name: Quality Creature Data _Template 6_Legendary
  m_EditorClassIdentifier: 
  _unitData: {fileID: 11400000, guid: ab791d74b33cb2342905d1360d58d5c9, type: 2}
  _qualityType: {fileID: 11400000, guid: 68082c398e041ca4198cf8513bc77cf9, type: 2}
  _icon: {fileID: 21300000, guid: 0a0d68c5471699148988f28dbb641846, type: 3}
  _creatureControllerPrefab: {fileID: 1571917857040091700, guid: e7fac5601d2a10944b6332f4e67695e9, type: 3}
  _preview: {fileID: 117150395161187363, guid: fea6bde0a78eadf459b05701d9fa5369, type: 3}
