%YAML 1.1
%TAG !u! tag:unity3d.com,2011:
--- !u!114 &11400000
MonoBehaviour:
  m_ObjectHideFlags: 0
  m_CorrespondingSourceObject: {fileID: 0}
  m_PrefabInstance: {fileID: 0}
  m_PrefabAsset: {fileID: 0}
  m_GameObject: {fileID: 0}
  m_Enabled: 1
  m_EditorHideFlags: 0
  m_Script: {fileID: 11500000, guid: 2540f93253b74e1eb5c5d6120adbe27d, type: 3}
  m_Name: Quality Creature Data _Template 6_Legendary
  m_EditorClassIdentifier: 
  _unitData: {fileID: 11400000, guid: e82821ff186a4f24e9d45be811e3ab2a, type: 2}
  _qualityType: {fileID: 11400000, guid: 68082c398e041ca4198cf8513bc77cf9, type: 2}
  _icon: {fileID: 21300000, guid: 30306c55e87fa3448852740062ae06e4, type: 3}
  _creatureControllerPrefab: {fileID: 5234473337258367358, guid: 00b3ca914aaf86946a8fbf7ad5ca64be, type: 3}
  _preview: {fileID: 5771025906570419322, guid: 698e2748641ae0f47a3d5e3dd06609e4, type: 3}
