%YAML 1.1
%TAG !u! tag:unity3d.com,2011:
--- !u!114 &11400000
MonoBehaviour:
  m_ObjectHideFlags: 0
  m_CorrespondingSourceObject: {fileID: 0}
  m_PrefabInstance: {fileID: 0}
  m_PrefabAsset: {fileID: 0}
  m_GameObject: {fileID: 0}
  m_Enabled: 1
  m_EditorHideFlags: 0
  m_Script: {fileID: 11500000, guid: 2540f93253b74e1eb5c5d6120adbe27d, type: 3}
  m_Name: Quality Creature Data _Template 1_Common
  m_EditorClassIdentifier: 
  _unitData: {fileID: 11400000, guid: e82821ff186a4f24e9d45be811e3ab2a, type: 2}
  _qualityType: {fileID: 11400000, guid: 0287f32be87c95146b6eae7903e8385e, type: 2}
  _icon: {fileID: 21300000, guid: cda7436adf24693488448869dfaaafda, type: 3}
  _creatureControllerPrefab: {fileID: 64256836484347633, guid: e2d64f22518683246a3d5d076312ba31, type: 3}
  _preview: {fileID: 5771025906570419322, guid: 698e2748641ae0f47a3d5e3dd06609e4, type: 3}
