%YAML 1.1
%TAG !u! tag:unity3d.com,2011:
--- !u!114 &11400000
MonoBehaviour:
  m_ObjectHideFlags: 0
  m_CorrespondingSourceObject: {fileID: 0}
  m_PrefabInstance: {fileID: 0}
  m_PrefabAsset: {fileID: 0}
  m_GameObject: {fileID: 0}
  m_Enabled: 1
  m_EditorHideFlags: 0
  m_Script: {fileID: 11500000, guid: 2540f93253b74e1eb5c5d6120adbe27d, type: 3}
  m_Name: Quality Creature Data _Template 1_Common
  m_EditorClassIdentifier: 
  _unitData: {fileID: 11400000, guid: 51aab47448dcb3f488337bee507865a5, type: 2}
  _qualityType: {fileID: 11400000, guid: 0287f32be87c95146b6eae7903e8385e, type: 2}
  _icon: {fileID: 21300000, guid: 4eb7ea805cc4b12499953da0142552f0, type: 3}
  _creatureControllerPrefab: {fileID: 4787891322263422100, guid: 9f1b5637eab736c448eab7b1cc4b9ce1, type: 3}
  _preview: {fileID: 117150395161187363, guid: 4e0cb19341c5f0443a9f7948ea19e094, type: 3}
